
T255C 000:379 SEGGER J-Link V5.12e Log File (0001ms, 0278ms total)
T255C 000:379 DLL Compiled: Apr 29 2016 15:03:58 (0001ms, 0278ms total)
T255C 000:379 Logging started @ 2021-12-02 10:36 (0001ms, 0278ms total)
T255C 000:380 JLINK_SetWarnOutHandler(...) (0000ms, 0278ms total)
T255C 000:380 JLINK_OpenEx(...)
Firmware: J-Link ARM V8 compiled Nov 28 2014 13:44:46
Hardware: V8.00
Feature(s): RDI,FlashDL,FlashBP,JFlash,GDB  returns O.K. (0279ms, 0557ms total)
T255C 000:659 JLINK_SetErrorOutHandler(...) (0000ms, 0557ms total)
T255C 000:659 JLINK_ExecCommand("ProjectFile = "E:\4常用资料\0公司芯片\DGF030CC 开发板例程\例程\DGF0X0 SystemTick实验\Project\M1130-EVAL\MDK-ARM\JLinkSettings.ini"", ...)Device "ARM7" selected.  returns 0x00 (0005ms, 0562ms total)
T255C 000:669 JLINK_ExecCommand("Device = Cortex-M0", ...)Device "CORTEX-M0" selected.  returns 0x00 (0006ms, 0568ms total)
T255C 000:675 JLINK_ExecCommand("DisableConnectionTimeout", ...)  returns 0x01 (0000ms, 0568ms total)
T255C 000:675 JLINK_GetHardwareVersion()  returns 0x13880 (0000ms, 0568ms total)
T255C 000:675 JLINK_GetDLLVersion()  returns 51205 (0000ms, 0568ms total)
T255C 000:675 JLINK_GetFirmwareString(...) (0000ms, 0568ms total)
T255C 000:699 JLINK_GetDLLVersion()  returns 51205 (0000ms, 0568ms total)
T255C 000:699 JLINK_GetCompileDateTime() (0000ms, 0568ms total)
T255C 000:707 JLINK_GetFirmwareString(...) (0000ms, 0568ms total)
T255C 000:714 JLINK_GetHardwareVersion()  returns 0x13880 (0000ms, 0568ms total)
T255C 000:721 JLINK_TIF_Select(JLINKARM_TIF_SWD)  returns 0x00 (0001ms, 0569ms total)
T255C 000:722 JLINK_SetSpeed(1000) (0000ms, 0569ms total)
T255C 000:722 JLINK_GetId() >0x108 TIF>Found SWD-DP with ID 0x0BB11477 >0x0D TIF> >0x28 TIF> >0x0D TIF> >0x28 TIF> >0x0D TIF> >0x28 TIF> >0x0D TIF> >0x28 TIF> >0x0D TIF> >0x21 TIF> >0x0D TIF> >0x28 TIF> >0x0D TIF> >0x28 TIF> >0x0D TIF> >0x21 TIF> >0x0D TIF> >0x21 TIF> >0x0D TIF> >0x21 TIF> >0x0D TIF> >0x28 TIF> >0x0D TIF> >0x28 TIF> >0x0D TIF> >0x28 TIF> >0x0D TIF> >0x21 TIF> >0x0D TIF> >0x21 TIF> >0x0D TIF> >0x28 TIF> >0x0D TIF> >0x21 TIF> >0x0D TIF> >0x21 TIF>Found Cortex-M0 r0p0, Little endian.
 -- CPU_ReadMem(4 bytes @ 0xE000EDF0) -- CPU_WriteMem(4 bytes @ 0xE000EDF0) -- CPU_ReadMem(4 bytes @ 0xE0002000)FPUnit: 4 code (BP) slots and 0 literal slots -- CPU_ReadMem(4 bytes @ 0xE000EDFC) -- CPU_WriteMem(4 bytes @ 0xE000EDFC) -- CPU_ReadMem(4 bytes @ 0xE0001000) -- CPU_WriteMem(4 bytes @ 0xE0001000)CoreSight components:ROMTbl 0 @ E00FF000 -- CPU_ReadMem(16 bytes @ 0xE00FF000) -- CPU_ReadMem(16 bytes @ 0xE000EFF0) -- CPU_ReadMem(16 bytes @ 0xE000EFE0)
ROMTbl 0 [0]: FFF0F000, CID: B105E00D, PID: 000BB008 SCS -- CPU_ReadMem(16 bytes @ 0xE0001FF0) -- CPU_ReadMem(16 bytes @ 0xE0001FE0)ROMTbl 0 [1]: FFF02000, CID: B105E00D, PID: 000BB00A DWT -- CPU_ReadMem(16 bytes @ 0xE0002FF0) -- CPU_ReadMem(16 bytes @ 0xE0002FE0)ROMTbl 0 [2]: FFF03000, CID: B105E00D, PID: 000BB00B FPB >0x0D TIF> >0x21 TIF>  returns 0x0BB11477 (0041ms, 0610ms total)
T255C 000:763 JLINK_GetDLLVersion()  returns 51205 (0000ms, 0610ms total)
T255C 000:763 JLINK_CORE_GetFound()  returns 0x60000FF (0000ms, 0610ms total)
T255C 000:763 JLINK_GetDebugInfo(0x100) -- Value=0xE00FF000  returns 0x00 (0000ms, 0610ms total)
T255C 000:765 JLINK_GetDebugInfo(0x100) -- Value=0xE00FF000  returns 0x00 (0000ms, 0610ms total)
T255C 000:765 JLINK_GetDebugInfo(0x101) -- Value=0x00000000  returns 0x00 (0000ms, 0610ms total)
T255C 000:765 JLINK_ReadMem (0xE0041FF0, 0x0010 Bytes, ...) -- CPU is running -- CPU_ReadMem(16 bytes @ 0xE0041FF0) - Data: 00 00 00 00 00 00 00 00 00 00 00 00 00 00 00 00  returns 0x00 (0001ms, 0611ms total)
T255C 000:766 JLINK_GetDebugInfo(0x102) -- Value=0x00000000  returns 0x00 (0000ms, 0611ms total)
T255C 000:766 JLINK_GetDebugInfo(0x103) -- Value=0x00000000  returns 0x00 (0000ms, 0611ms total)
T255C 000:766 JLINK_ReadMem (0xE0040FF0, 0x0010 Bytes, ...) -- CPU is running -- CPU_ReadMem(16 bytes @ 0xE0040FF0) - Data: 00 00 00 00 00 00 00 00 00 00 00 00 00 00 00 00  returns 0x00 (0001ms, 0612ms total)
T255C 000:767 JLINK_GetDebugInfo(0x104) -- Value=0xE0000000  returns 0x00 (0000ms, 0612ms total)
T255C 000:767 JLINK_GetDebugInfo(0x105) -- Value=0xE0001000  returns 0x00 (0000ms, 0612ms total)
T255C 000:767 JLINK_GetDebugInfo(0x106) -- Value=0xE0002000  returns 0x00 (0000ms, 0612ms total)
T255C 000:767 JLINK_GetDebugInfo(0x107) -- Value=0xE000E000  returns 0x00 (0000ms, 0612ms total)
T255C 000:767 JLINK_GetDebugInfo(0x10C) -- Value=0xE000EDF0  returns 0x00 (0000ms, 0612ms total)
T255C 000:767 JLINK_ReadMemU32(0xE000ED00, 0x0001 Items, ...) -- CPU is running -- CPU_ReadMem(4 bytes @ 0xE000ED00) - Data: 00 C2 0C 41  returns 0x01 (0000ms, 0612ms total)
T255C 000:767 JLINK_SetResetType(JLINKARM_RESET_TYPE_NORMAL)  returns JLINKARM_RESET_TYPE_NORMAL (0000ms, 0612ms total)
T255C 000:767 JLINK_Reset() -- CPU is running -- CPU_WriteMem(4 bytes @ 0xE000EDF0) -- CPU is running -- CPU_WriteMem(4 bytes @ 0xE000EDFC) >0x35 TIF> -- CPU is running -- CPU_WriteMem(4 bytes @ 0xE000ED0C) -- CPU is running -- CPU_ReadMem(4 bytes @ 0xE000EDF0) -- CPU is running -- CPU_ReadMem(4 bytes @ 0xE000EDF0) -- CPU is running -- CPU_WriteMem(4 bytes @ 0xE000EDF0) -- CPU is running -- CPU_WriteMem(4 bytes @ 0xE000EDFC) -- CPU is running -- CPU_ReadMem(4 bytes @ 0xE000EDF0)
 -- CPU_WriteMem(4 bytes @ 0xE0002000) -- CPU_ReadMem(4 bytes @ 0xE000EDFC) -- CPU_ReadMem(4 bytes @ 0xE0001000) -- CPU_WriteMem(4 bytes @ 0xE0001000) (0021ms, 0633ms total)
T255C 000:788 JLINK_Halt()  returns 0x00 (0000ms, 0633ms total)
T255C 000:788 JLINK_IsHalted()  returns TRUE (0000ms, 0633ms total)
T255C 000:788 JLINK_ReadMemU32(0xE000EDF0, 0x0001 Items, ...) -- CPU_ReadMem(4 bytes @ 0xE000EDF0) - Data: 03 00 03 00  returns 0x01 (0002ms, 0635ms total)
T255C 000:790 JLINK_WriteU32(0xE000EDF0, 0xA05F0003) -- CPU_WriteMem(4 bytes @ 0xE000EDF0)  returns 0x00 (0000ms, 0635ms total)
T255C 000:790 JLINK_WriteU32(0xE000EDFC, 0x01000000) -- CPU_WriteMem(4 bytes @ 0xE000EDFC)  returns 0x00 (0001ms, 0636ms total)
T255C 000:801 JLINK_GetHWStatus(...)  returns 0x00 (0001ms, 0637ms total)
T255C 000:807 JLINK_GetNumBPUnits(Type = 0xFFFFFF00)  returns 0x04 (0000ms, 0637ms total)
T255C 000:807 JLINK_GetNumBPUnits(Type = 0xF0)  returns 0x2000 (0000ms, 0637ms total)
T255C 000:807 JLINK_GetNumWPUnits()  returns 0x02 (0000ms, 0637ms total)
T255C 000:815 JLINK_GetSpeed()  returns 0x3E8 (0000ms, 0637ms total)
T255C 000:819 JLINK_ReadMemU32(0xE000E004, 0x0001 Items, ...) -- CPU_ReadMem(4 bytes @ 0xE000E004) - Data: 00 00 00 00  returns 0x01 (0000ms, 0637ms total)
T255C 000:819 JLINK_Halt()  returns 0x00 (0000ms, 0637ms total)
T255C 000:819 JLINK_IsHalted()  returns TRUE (0000ms, 0637ms total)
T255C 000:822 JLINK_WriteMem(0x20000000, 0x0708 Bytes, ...) - Data: 00 BE 0A E0 0D 78 2D 06 68 40 08 24 40 00 00 D3 ... -- CPU_WriteMem(1800 bytes @ 0x20000000)  returns 0x708 (0027ms, 0664ms total)
T255C 000:849 JLINK_WriteReg(R0, 0x00000000)  returns 0x00 (0000ms, 0664ms total)
T255C 000:849 JLINK_WriteReg(R1, 0x00B71B00)  returns 0x00 (0000ms, 0664ms total)
T255C 000:849 JLINK_WriteReg(R2, 0x00000001)  returns 0x00 (0000ms, 0664ms total)
T255C 000:849 JLINK_WriteReg(R3, 0x00000000)  returns 0x00 (0000ms, 0664ms total)
T255C 000:849 JLINK_WriteReg(R4, 0x00000000)  returns 0x00 (0000ms, 0664ms total)
T255C 000:849 JLINK_WriteReg(R5, 0x00000000)  returns 0x00 (0000ms, 0664ms total)
T255C 000:849 JLINK_WriteReg(R6, 0x00000000)  returns 0x00 (0000ms, 0664ms total)
T255C 000:849 JLINK_WriteReg(R7, 0x00000000)  returns 0x00 (0000ms, 0664ms total)
T255C 000:849 JLINK_WriteReg(R8, 0x00000000)  returns 0x00 (0000ms, 0664ms total)
T255C 000:849 JLINK_WriteReg(R9, 0x200006F8)  returns 0x00 (0000ms, 0664ms total)
T255C 000:849 JLINK_WriteReg(R10, 0x00000000)  returns 0x00 (0000ms, 0664ms total)
T255C 000:849 JLINK_WriteReg(R11, 0x00000000)  returns 0x00 (0000ms, 0664ms total)
T255C 000:849 JLINK_WriteReg(R12, 0x00000000)  returns 0x00 (0000ms, 0664ms total)
T255C 000:849 JLINK_WriteReg(R13 (SP), 0x20008000)  returns 0x00 (0000ms, 0664ms total)
T255C 000:849 JLINK_WriteReg(R14, 0x20000001)  returns 0x00 (0000ms, 0664ms total)
T255C 000:849 JLINK_WriteReg(R15 (PC), 0x2000003C)  returns 0x00 (0000ms, 0664ms total)
T255C 000:849 JLINK_WriteReg(XPSR, 0x01000000)  returns 0x00 (0000ms, 0664ms total)
T255C 000:849 JLINK_WriteReg(MSP, 0x20008000)  returns 0x00 (0000ms, 0664ms total)
T255C 000:849 JLINK_WriteReg(PSP, 0x20008000)  returns 0x00 (0000ms, 0664ms total)
T255C 000:849 JLINK_WriteReg(CFBP, 0x00000000)  returns 0x00 (0001ms, 0665ms total)
T255C 000:850 JLINK_SetBPEx(Addr = 0x20000000, Type = 0xFFFFFFF2) -- CPU_ReadMem(4 bytes @ 0x20000000) -- CPU_WriteMem(4 bytes @ 0x20000000) -- CPU_ReadMem(4 bytes @ 0x20000000) -- CPU_WriteMem(4 bytes @ 0x20000000) -- CPU_ReadMem(2 bytes @ 0x20000000)  returns 0x00000001 (0003ms, 0668ms total)
T255C 000:853 JLINK_Go() -- CPU_WriteMem(2 bytes @ 0x20000000) -- CPU_ReadMem(4 bytes @ 0xE0001000) -- CPU_WriteMem(4 bytes @ 0xE0001000) -- CPU_WriteMem(4 bytes @ 0xE0002008) -- CPU_WriteMem(4 bytes @ 0xE000200C) -- CPU_WriteMem(4 bytes @ 0xE0002010) -- CPU_WriteMem(4 bytes @ 0xE0002014) -- CPU_WriteMem(4 bytes @ 0xE0001004) (0009ms, 0677ms total)
T255C 000:862 JLINK_IsHalted()  returns FALSE (0000ms, 0677ms total)
T255C 000:923 JLINK_IsHalted() -- CPU_ReadMem(2 bytes @ 0x20000000)  returns TRUE (0004ms, 0681ms total)
T255C 000:927 JLINK_ReadReg(R15 (PC))  returns 0x20000000 (0000ms, 0677ms total)
T255C 000:927 JLINK_ClrBPEx(BPHandle = 0x00000001)  returns 0x00 (0000ms, 0677ms total)
T255C 000:927 JLINK_ReadReg(R0)  returns 0x00000000 (0000ms, 0677ms total)
T255C 000:928 JLINK_WriteReg(R0, 0x00000000)  returns 0x00 (0000ms, 0677ms total)
T255C 000:928 JLINK_WriteReg(R1, 0x00001000)  returns 0x00 (0000ms, 0677ms total)
T255C 000:928 JLINK_WriteReg(R2, 0x000000FF)  returns 0x00 (0000ms, 0677ms total)
T255C 000:928 JLINK_WriteReg(R3, 0x00000000)  returns 0x00 (0000ms, 0677ms total)
T255C 000:928 JLINK_WriteReg(R4, 0x00000000)  returns 0x00 (0000ms, 0677ms total)
T255C 000:928 JLINK_WriteReg(R5, 0x00000000)  returns 0x00 (0000ms, 0677ms total)
T255C 000:928 JLINK_WriteReg(R6, 0x00000000)  returns 0x00 (0000ms, 0677ms total)
T255C 000:928 JLINK_WriteReg(R7, 0x00000000)  returns 0x00 (0000ms, 0677ms total)
T255C 000:928 JLINK_WriteReg(R8, 0x00000000)  returns 0x00 (0000ms, 0677ms total)
T255C 000:928 JLINK_WriteReg(R9, 0x200006F8)  returns 0x00 (0000ms, 0677ms total)
T255C 000:928 JLINK_WriteReg(R10, 0x00000000)  returns 0x00 (0000ms, 0677ms total)
T255C 000:928 JLINK_WriteReg(R11, 0x00000000)  returns 0x00 (0000ms, 0677ms total)
T255C 000:928 JLINK_WriteReg(R12, 0x00000000)  returns 0x00 (0000ms, 0677ms total)
T255C 000:928 JLINK_WriteReg(R13 (SP), 0x20008000)  returns 0x00 (0000ms, 0677ms total)
T255C 000:928 JLINK_WriteReg(R14, 0x20000001)  returns 0x00 (0000ms, 0677ms total)
T255C 000:928 JLINK_WriteReg(R15 (PC), 0x20000020)  returns 0x00 (0000ms, 0677ms total)
T255C 000:928 JLINK_WriteReg(XPSR, 0x01000000)  returns 0x00 (0000ms, 0677ms total)
T255C 000:928 JLINK_WriteReg(MSP, 0x20008000)  returns 0x00 (0000ms, 0677ms total)
T255C 000:928 JLINK_WriteReg(PSP, 0x20008000)  returns 0x00 (0000ms, 0677ms total)
T255C 000:928 JLINK_WriteReg(CFBP, 0x00000000)  returns 0x00 (0000ms, 0677ms total)
T255C 000:928 JLINK_SetBPEx(Addr = 0x20000000, Type = 0xFFFFFFF2)  returns 0x00000002 (0000ms, 0677ms total)
T255C 000:928 JLINK_Go() -- CPU_ReadMem(4 bytes @ 0xE0001000) -- CPU_WriteMem(4 bytes @ 0xE0001000) (0003ms, 0680ms total)
T255C 000:931 JLINK_IsHalted() -- CPU_ReadMem(2 bytes @ 0x20000000)  returns TRUE (0005ms, 0685ms total)
T255C 000:936 JLINK_ReadReg(R15 (PC))  returns 0x20000000 (0000ms, 0680ms total)
T255C 000:936 JLINK_ClrBPEx(BPHandle = 0x00000002)  returns 0x00 (0000ms, 0680ms total)
T255C 000:936 JLINK_ReadReg(R0)  returns 0x00000001 (0000ms, 0680ms total)
T255C 000:936 JLINK_WriteReg(R0, 0x00000000)  returns 0x00 (0000ms, 0680ms total)
T255C 000:936 JLINK_WriteReg(R1, 0x00001000)  returns 0x00 (0000ms, 0680ms total)
T255C 000:936 JLINK_WriteReg(R2, 0x000000FF)  returns 0x00 (0000ms, 0680ms total)
T255C 000:936 JLINK_WriteReg(R3, 0x00000000)  returns 0x00 (0000ms, 0680ms total)
T255C 000:936 JLINK_WriteReg(R4, 0x00000000)  returns 0x00 (0000ms, 0680ms total)
T255C 000:936 JLINK_WriteReg(R5, 0x00000000)  returns 0x00 (0000ms, 0680ms total)
T255C 000:936 JLINK_WriteReg(R6, 0x00000000)  returns 0x00 (0000ms, 0680ms total)
T255C 000:936 JLINK_WriteReg(R7, 0x00000000)  returns 0x00 (0000ms, 0680ms total)
T255C 000:936 JLINK_WriteReg(R8, 0x00000000)  returns 0x00 (0000ms, 0680ms total)
T255C 000:936 JLINK_WriteReg(R9, 0x200006F8)  returns 0x00 (0000ms, 0680ms total)
T255C 000:936 JLINK_WriteReg(R10, 0x00000000)  returns 0x00 (0000ms, 0680ms total)
T255C 000:936 JLINK_WriteReg(R11, 0x00000000)  returns 0x00 (0000ms, 0680ms total)
T255C 000:936 JLINK_WriteReg(R12, 0x00000000)  returns 0x00 (0000ms, 0680ms total)
T255C 000:936 JLINK_WriteReg(R13 (SP), 0x20008000)  returns 0x00 (0000ms, 0680ms total)
T255C 000:936 JLINK_WriteReg(R14, 0x20000001)  returns 0x00 (0000ms, 0680ms total)
T255C 000:936 JLINK_WriteReg(R15 (PC), 0x20000024)  returns 0x00 (0000ms, 0680ms total)
T255C 000:936 JLINK_WriteReg(XPSR, 0x01000000)  returns 0x00 (0000ms, 0680ms total)
T255C 000:936 JLINK_WriteReg(MSP, 0x20008000)  returns 0x00 (0000ms, 0680ms total)
T255C 000:936 JLINK_WriteReg(PSP, 0x20008000)  returns 0x00 (0000ms, 0680ms total)
T255C 000:936 JLINK_WriteReg(CFBP, 0x00000000)  returns 0x00 (0000ms, 0680ms total)
T255C 000:936 JLINK_SetBPEx(Addr = 0x20000000, Type = 0xFFFFFFF2)  returns 0x00000003 (0000ms, 0680ms total)
T255C 000:936 JLINK_Go() -- CPU_ReadMem(4 bytes @ 0xE0001000) -- CPU_WriteMem(4 bytes @ 0xE0001000) (0003ms, 0683ms total)
T255C 000:939 JLINK_IsHalted()  returns FALSE (0001ms, 0684ms total)
T255C 000:942 JLINK_IsHalted()  returns FALSE (0000ms, 0683ms total)
T255C 000:944 JLINK_IsHalted()  returns FALSE (0000ms, 0683ms total)
T255C 000:946 JLINK_IsHalted()  returns FALSE (0000ms, 0683ms total)
T255C 000:948 JLINK_IsHalted()  returns FALSE (0001ms, 0684ms total)
T255C 000:953 JLINK_IsHalted() -- CPU_ReadMem(2 bytes @ 0x20000000)  returns TRUE (0005ms, 0688ms total)
T255C 000:958 JLINK_ReadReg(R15 (PC))  returns 0x20000000 (0000ms, 0683ms total)
T255C 000:958 JLINK_ClrBPEx(BPHandle = 0x00000003)  returns 0x00 (0000ms, 0683ms total)
T255C 000:958 JLINK_ReadReg(R0)  returns 0x00000000 (0000ms, 0683ms total)
T255C 000:958 JLINK_WriteReg(R0, 0x00000001)  returns 0x00 (0000ms, 0683ms total)
T255C 000:958 JLINK_WriteReg(R1, 0x00001000)  returns 0x00 (0000ms, 0683ms total)
T255C 000:958 JLINK_WriteReg(R2, 0x000000FF)  returns 0x00 (0000ms, 0683ms total)
T255C 000:958 JLINK_WriteReg(R3, 0x00000000)  returns 0x00 (0000ms, 0683ms total)
T255C 000:958 JLINK_WriteReg(R4, 0x00000000)  returns 0x00 (0000ms, 0683ms total)
T255C 000:958 JLINK_WriteReg(R5, 0x00000000)  returns 0x00 (0001ms, 0684ms total)
T255C 000:959 JLINK_WriteReg(R6, 0x00000000)  returns 0x00 (0000ms, 0684ms total)
T255C 000:959 JLINK_WriteReg(R7, 0x00000000)  returns 0x00 (0000ms, 0684ms total)
T255C 000:959 JLINK_WriteReg(R8, 0x00000000)  returns 0x00 (0000ms, 0684ms total)
T255C 000:959 JLINK_WriteReg(R9, 0x200006F8)  returns 0x00 (0000ms, 0684ms total)
T255C 000:959 JLINK_WriteReg(R10, 0x00000000)  returns 0x00 (0000ms, 0684ms total)
T255C 000:959 JLINK_WriteReg(R11, 0x00000000)  returns 0x00 (0000ms, 0684ms total)
T255C 000:959 JLINK_WriteReg(R12, 0x00000000)  returns 0x00 (0000ms, 0684ms total)
T255C 000:959 JLINK_WriteReg(R13 (SP), 0x20008000)  returns 0x00 (0000ms, 0684ms total)
T255C 000:959 JLINK_WriteReg(R14, 0x20000001)  returns 0x00 (0000ms, 0684ms total)
T255C 000:959 JLINK_WriteReg(R15 (PC), 0x200001C8)  returns 0x00 (0000ms, 0684ms total)
T255C 000:959 JLINK_WriteReg(XPSR, 0x01000000)  returns 0x00 (0000ms, 0684ms total)
T255C 000:959 JLINK_WriteReg(MSP, 0x20008000)  returns 0x00 (0000ms, 0684ms total)
T255C 000:959 JLINK_WriteReg(PSP, 0x20008000)  returns 0x00 (0000ms, 0684ms total)
T255C 000:959 JLINK_WriteReg(CFBP, 0x00000000)  returns 0x00 (0000ms, 0684ms total)
T255C 000:959 JLINK_SetBPEx(Addr = 0x20000000, Type = 0xFFFFFFF2)  returns 0x00000004 (0000ms, 0684ms total)
T255C 000:959 JLINK_Go() -- CPU_ReadMem(4 bytes @ 0xE0001000) -- CPU_WriteMem(4 bytes @ 0xE0001000) (0004ms, 0688ms total)
T255C 000:963 JLINK_IsHalted() -- CPU_ReadMem(2 bytes @ 0x20000000)  returns TRUE (0005ms, 0693ms total)
T255C 000:968 JLINK_ReadReg(R15 (PC))  returns 0x20000000 (0000ms, 0688ms total)
T255C 000:968 JLINK_ClrBPEx(BPHandle = 0x00000004)  returns 0x00 (0000ms, 0688ms total)
T255C 000:968 JLINK_ReadReg(R0)  returns 0x00000000 (0000ms, 0688ms total)
T255C 001:043 JLINK_WriteMem(0x20000000, 0x0708 Bytes, ...) - Data: 00 BE 0A E0 0D 78 2D 06 68 40 08 24 40 00 00 D3 ... -- CPU_WriteMem(1800 bytes @ 0x20000000)  returns 0x708 (0027ms, 0715ms total)
T255C 001:070 JLINK_WriteReg(R0, 0x00000000)  returns 0x00 (0000ms, 0715ms total)
T255C 001:070 JLINK_WriteReg(R1, 0x00B71B00)  returns 0x00 (0000ms, 0715ms total)
T255C 001:070 JLINK_WriteReg(R2, 0x00000002)  returns 0x00 (0000ms, 0715ms total)
T255C 001:070 JLINK_WriteReg(R3, 0x00000000)  returns 0x00 (0000ms, 0715ms total)
T255C 001:070 JLINK_WriteReg(R4, 0x00000000)  returns 0x00 (0000ms, 0715ms total)
T255C 001:070 JLINK_WriteReg(R5, 0x00000000)  returns 0x00 (0000ms, 0715ms total)
T255C 001:070 JLINK_WriteReg(R6, 0x00000000)  returns 0x00 (0000ms, 0715ms total)
T255C 001:070 JLINK_WriteReg(R7, 0x00000000)  returns 0x00 (0000ms, 0715ms total)
T255C 001:070 JLINK_WriteReg(R8, 0x00000000)  returns 0x00 (0001ms, 0716ms total)
T255C 001:071 JLINK_WriteReg(R9, 0x200006F8)  returns 0x00 (0000ms, 0716ms total)
T255C 001:071 JLINK_WriteReg(R10, 0x00000000)  returns 0x00 (0000ms, 0716ms total)
T255C 001:071 JLINK_WriteReg(R11, 0x00000000)  returns 0x00 (0000ms, 0716ms total)
T255C 001:071 JLINK_WriteReg(R12, 0x00000000)  returns 0x00 (0000ms, 0716ms total)
T255C 001:071 JLINK_WriteReg(R13 (SP), 0x20008000)  returns 0x00 (0000ms, 0716ms total)
T255C 001:071 JLINK_WriteReg(R14, 0x20000001)  returns 0x00 (0000ms, 0716ms total)
T255C 001:071 JLINK_WriteReg(R15 (PC), 0x2000003C)  returns 0x00 (0000ms, 0716ms total)
T255C 001:071 JLINK_WriteReg(XPSR, 0x01000000)  returns 0x00 (0000ms, 0716ms total)
T255C 001:071 JLINK_WriteReg(MSP, 0x20008000)  returns 0x00 (0000ms, 0716ms total)
T255C 001:071 JLINK_WriteReg(PSP, 0x20008000)  returns 0x00 (0000ms, 0716ms total)
T255C 001:071 JLINK_WriteReg(CFBP, 0x00000000)  returns 0x00 (0000ms, 0716ms total)
T255C 001:071 JLINK_SetBPEx(Addr = 0x20000000, Type = 0xFFFFFFF2) -- CPU_ReadMem(4 bytes @ 0x20000000) -- CPU_WriteMem(4 bytes @ 0x20000000) -- CPU_ReadMem(4 bytes @ 0x20000000) -- CPU_WriteMem(4 bytes @ 0x20000000) -- CPU_ReadMem(2 bytes @ 0x20000000)  returns 0x00000005 (0005ms, 0721ms total)
T255C 001:076 JLINK_Go() -- CPU_WriteMem(2 bytes @ 0x20000000) -- CPU_ReadMem(4 bytes @ 0xE0001000) -- CPU_WriteMem(4 bytes @ 0xE0001000) (0006ms, 0727ms total)
T255C 001:082 JLINK_IsHalted()  returns FALSE (0001ms, 0728ms total)
T255C 001:100 JLINK_IsHalted() -- CPU_ReadMem(2 bytes @ 0x20000000)  returns TRUE (0006ms, 0733ms total)
T255C 001:106 JLINK_ReadReg(R15 (PC))  returns 0x20000000 (0000ms, 0727ms total)
T255C 001:106 JLINK_ClrBPEx(BPHandle = 0x00000005)  returns 0x00 (0000ms, 0727ms total)
T255C 001:106 JLINK_ReadReg(R0)  returns 0x00000000 (0000ms, 0727ms total)
T255C 001:107 JLINK_WriteMem(0x20000808, 0x0100 Bytes, ...) - Data: 08 04 00 20 B1 00 00 00 B9 00 00 00 CD 00 00 00 ... -- CPU_WriteMem(256 bytes @ 0x20000808)  returns 0x100 (0005ms, 0732ms total)
T255C 001:112 JLINK_WriteReg(R0, 0x00000000)  returns 0x00 (0000ms, 0732ms total)
T255C 001:112 JLINK_WriteReg(R1, 0x00000100)  returns 0x00 (0000ms, 0732ms total)
T255C 001:112 JLINK_WriteReg(R2, 0x20000808)  returns 0x00 (0000ms, 0732ms total)
T255C 001:112 JLINK_WriteReg(R3, 0x00000000)  returns 0x00 (0000ms, 0732ms total)
T255C 001:112 JLINK_WriteReg(R4, 0x00000000)  returns 0x00 (0000ms, 0732ms total)
T255C 001:112 JLINK_WriteReg(R5, 0x00000000)  returns 0x00 (0000ms, 0732ms total)
T255C 001:112 JLINK_WriteReg(R6, 0x00000000)  returns 0x00 (0000ms, 0732ms total)
T255C 001:112 JLINK_WriteReg(R7, 0x00000000)  returns 0x00 (0000ms, 0732ms total)
T255C 001:112 JLINK_WriteReg(R8, 0x00000000)  returns 0x00 (0000ms, 0732ms total)
T255C 001:112 JLINK_WriteReg(R9, 0x200006F8)  returns 0x00 (0000ms, 0732ms total)
T255C 001:112 JLINK_WriteReg(R10, 0x00000000)  returns 0x00 (0000ms, 0732ms total)
T255C 001:112 JLINK_WriteReg(R11, 0x00000000)  returns 0x00 (0000ms, 0732ms total)
T255C 001:112 JLINK_WriteReg(R12, 0x00000000)  returns 0x00 (0000ms, 0732ms total)
T255C 001:112 JLINK_WriteReg(R13 (SP), 0x20008000)  returns 0x00 (0000ms, 0732ms total)
T255C 001:112 JLINK_WriteReg(R14, 0x20000001)  returns 0x00 (0000ms, 0732ms total)
T255C 001:112 JLINK_WriteReg(R15 (PC), 0x20000068)  returns 0x00 (0000ms, 0732ms total)
T255C 001:112 JLINK_WriteReg(XPSR, 0x01000000)  returns 0x00 (0000ms, 0732ms total)
T255C 001:112 JLINK_WriteReg(MSP, 0x20008000)  returns 0x00 (0000ms, 0732ms total)
T255C 001:112 JLINK_WriteReg(PSP, 0x20008000)  returns 0x00 (0000ms, 0732ms total)
T255C 001:112 JLINK_WriteReg(CFBP, 0x00000000)  returns 0x00 (0000ms, 0732ms total)
T255C 001:112 JLINK_SetBPEx(Addr = 0x20000000, Type = 0xFFFFFFF2)  returns 0x00000006 (0000ms, 0732ms total)
T255C 001:112 JLINK_Go() -- CPU_ReadMem(4 bytes @ 0xE0001000) -- CPU_WriteMem(4 bytes @ 0xE0001000) (0005ms, 0737ms total)
T255C 001:117 JLINK_IsHalted()  returns FALSE (0001ms, 0738ms total)
T255C 001:129 JLINK_IsHalted() -- CPU_ReadMem(2 bytes @ 0x20000000)  returns TRUE (0005ms, 0742ms total)
T255C 001:134 JLINK_ReadReg(R15 (PC))  returns 0x20000000 (0000ms, 0737ms total)
T255C 001:134 JLINK_ClrBPEx(BPHandle = 0x00000006)  returns 0x00 (0000ms, 0737ms total)
T255C 001:134 JLINK_ReadReg(R0)  returns 0x00000000 (0000ms, 0737ms total)
T255C 001:134 JLINK_WriteMem(0x20000808, 0x0100 Bytes, ...) - Data: 03 48 85 46 00 F0 06 F8 00 48 00 47 D9 02 00 00 ... -- CPU_WriteMem(256 bytes @ 0x20000808)  returns 0x100 (0006ms, 0743ms total)
T255C 001:140 JLINK_WriteReg(R0, 0x00000100)  returns 0x00 (0000ms, 0743ms total)
T255C 001:140 JLINK_WriteReg(R1, 0x00000100)  returns 0x00 (0000ms, 0743ms total)
T255C 001:140 JLINK_WriteReg(R2, 0x20000808)  returns 0x00 (0000ms, 0743ms total)
T255C 001:140 JLINK_WriteReg(R3, 0x00000000)  returns 0x00 (0000ms, 0743ms total)
T255C 001:140 JLINK_WriteReg(R4, 0x00000000)  returns 0x00 (0000ms, 0743ms total)
T255C 001:140 JLINK_WriteReg(R5, 0x00000000)  returns 0x00 (0000ms, 0743ms total)
T255C 001:140 JLINK_WriteReg(R6, 0x00000000)  returns 0x00 (0000ms, 0743ms total)
T255C 001:140 JLINK_WriteReg(R7, 0x00000000)  returns 0x00 (0000ms, 0743ms total)
T255C 001:140 JLINK_WriteReg(R8, 0x00000000)  returns 0x00 (0000ms, 0743ms total)
T255C 001:140 JLINK_WriteReg(R9, 0x200006F8)  returns 0x00 (0000ms, 0743ms total)
T255C 001:140 JLINK_WriteReg(R10, 0x00000000)  returns 0x00 (0000ms, 0743ms total)
T255C 001:140 JLINK_WriteReg(R11, 0x00000000)  returns 0x00 (0000ms, 0743ms total)
T255C 001:140 JLINK_WriteReg(R12, 0x00000000)  returns 0x00 (0000ms, 0743ms total)
T255C 001:140 JLINK_WriteReg(R13 (SP), 0x20008000)  returns 0x00 (0000ms, 0743ms total)
T255C 001:140 JLINK_WriteReg(R14, 0x20000001)  returns 0x00 (0000ms, 0743ms total)
T255C 001:140 JLINK_WriteReg(R15 (PC), 0x20000068)  returns 0x00 (0000ms, 0743ms total)
T255C 001:140 JLINK_WriteReg(XPSR, 0x01000000)  returns 0x00 (0000ms, 0743ms total)
T255C 001:140 JLINK_WriteReg(MSP, 0x20008000)  returns 0x00 (0000ms, 0743ms total)
T255C 001:140 JLINK_WriteReg(PSP, 0x20008000)  returns 0x00 (0000ms, 0743ms total)
T255C 001:140 JLINK_WriteReg(CFBP, 0x00000000)  returns 0x00 (0000ms, 0743ms total)
T255C 001:140 JLINK_SetBPEx(Addr = 0x20000000, Type = 0xFFFFFFF2)  returns 0x00000007 (0000ms, 0743ms total)
T255C 001:140 JLINK_Go() -- CPU_ReadMem(4 bytes @ 0xE0001000) -- CPU_WriteMem(4 bytes @ 0xE0001000) (0005ms, 0748ms total)
T255C 001:145 JLINK_IsHalted()  returns FALSE (0000ms, 0748ms total)
T255C 001:147 JLINK_IsHalted()  returns FALSE (0001ms, 0749ms total)
T255C 001:150 JLINK_IsHalted()  returns FALSE (0000ms, 0749ms total)
T255C 001:152 JLINK_IsHalted() -- CPU_ReadMem(2 bytes @ 0x20000000)  returns TRUE (0005ms, 0754ms total)
T255C 001:157 JLINK_ReadReg(R15 (PC))  returns 0x20000000 (0000ms, 0749ms total)
T255C 001:157 JLINK_ClrBPEx(BPHandle = 0x00000007)  returns 0x00 (0000ms, 0749ms total)
T255C 001:157 JLINK_ReadReg(R0)  returns 0x00000000 (0000ms, 0749ms total)
T255C 001:157 JLINK_WriteMem(0x20000808, 0x0100 Bytes, ...) - Data: 00 2B 08 D0 83 00 1B 19 1D 68 ED 08 ED 00 1D 60 ... -- CPU_WriteMem(256 bytes @ 0x20000808)  returns 0x100 (0005ms, 0754ms total)
T255C 001:162 JLINK_WriteReg(R0, 0x00000200)  returns 0x00 (0000ms, 0754ms total)
T255C 001:162 JLINK_WriteReg(R1, 0x00000100)  returns 0x00 (0000ms, 0754ms total)
T255C 001:162 JLINK_WriteReg(R2, 0x20000808)  returns 0x00 (0000ms, 0754ms total)
T255C 001:162 JLINK_WriteReg(R3, 0x00000000)  returns 0x00 (0000ms, 0754ms total)
T255C 001:162 JLINK_WriteReg(R4, 0x00000000)  returns 0x00 (0000ms, 0754ms total)
T255C 001:162 JLINK_WriteReg(R5, 0x00000000)  returns 0x00 (0000ms, 0754ms total)
T255C 001:162 JLINK_WriteReg(R6, 0x00000000)  returns 0x00 (0000ms, 0754ms total)
T255C 001:162 JLINK_WriteReg(R7, 0x00000000)  returns 0x00 (0000ms, 0754ms total)
T255C 001:162 JLINK_WriteReg(R8, 0x00000000)  returns 0x00 (0000ms, 0754ms total)
T255C 001:162 JLINK_WriteReg(R9, 0x200006F8)  returns 0x00 (0000ms, 0754ms total)
T255C 001:162 JLINK_WriteReg(R10, 0x00000000)  returns 0x00 (0000ms, 0754ms total)
T255C 001:162 JLINK_WriteReg(R11, 0x00000000)  returns 0x00 (0000ms, 0754ms total)
T255C 001:162 JLINK_WriteReg(R12, 0x00000000)  returns 0x00 (0000ms, 0754ms total)
T255C 001:162 JLINK_WriteReg(R13 (SP), 0x20008000)  returns 0x00 (0000ms, 0754ms total)
T255C 001:162 JLINK_WriteReg(R14, 0x20000001)  returns 0x00 (0000ms, 0754ms total)
T255C 001:162 JLINK_WriteReg(R15 (PC), 0x20000068)  returns 0x00 (0000ms, 0754ms total)
T255C 001:162 JLINK_WriteReg(XPSR, 0x01000000)  returns 0x00 (0000ms, 0754ms total)
T255C 001:162 JLINK_WriteReg(MSP, 0x20008000)  returns 0x00 (0000ms, 0754ms total)
T255C 001:162 JLINK_WriteReg(PSP, 0x20008000)  returns 0x00 (0000ms, 0754ms total)
T255C 001:162 JLINK_WriteReg(CFBP, 0x00000000)  returns 0x00 (0000ms, 0754ms total)
T255C 001:162 JLINK_SetBPEx(Addr = 0x20000000, Type = 0xFFFFFFF2)  returns 0x00000008 (0000ms, 0754ms total)
T255C 001:162 JLINK_Go() -- CPU_ReadMem(4 bytes @ 0xE0001000) -- CPU_WriteMem(4 bytes @ 0xE0001000) (0004ms, 0758ms total)
T255C 001:166 JLINK_IsHalted()  returns FALSE (0001ms, 0759ms total)
T255C 001:169 JLINK_IsHalted()  returns FALSE (0001ms, 0759ms total)
T255C 001:171 JLINK_IsHalted()  returns FALSE (0001ms, 0759ms total)
T255C 001:174 JLINK_IsHalted() -- CPU_ReadMem(2 bytes @ 0x20000000)  returns TRUE (0006ms, 0764ms total)
T255C 001:180 JLINK_ReadReg(R15 (PC))  returns 0x20000000 (0000ms, 0758ms total)
T255C 001:180 JLINK_ClrBPEx(BPHandle = 0x00000008)  returns 0x00 (0000ms, 0758ms total)
T255C 001:180 JLINK_ReadReg(R0)  returns 0x00000000 (0000ms, 0758ms total)
T255C 001:180 JLINK_WriteMem(0x20000808, 0x0100 Bytes, ...) - Data: 07 22 CB 69 1B 02 1B 0A 44 04 23 43 CB 61 00 21 ... -- CPU_WriteMem(256 bytes @ 0x20000808)  returns 0x100 (0005ms, 0763ms total)
T255C 001:185 JLINK_WriteReg(R0, 0x00000300)  returns 0x00 (0000ms, 0763ms total)
T255C 001:185 JLINK_WriteReg(R1, 0x00000034)  returns 0x00 (0000ms, 0763ms total)
T255C 001:185 JLINK_WriteReg(R2, 0x20000808)  returns 0x00 (0000ms, 0763ms total)
T255C 001:185 JLINK_WriteReg(R3, 0x00000000)  returns 0x00 (0000ms, 0763ms total)
T255C 001:185 JLINK_WriteReg(R4, 0x00000000)  returns 0x00 (0000ms, 0763ms total)
T255C 001:185 JLINK_WriteReg(R5, 0x00000000)  returns 0x00 (0000ms, 0763ms total)
T255C 001:185 JLINK_WriteReg(R6, 0x00000000)  returns 0x00 (0000ms, 0763ms total)
T255C 001:185 JLINK_WriteReg(R7, 0x00000000)  returns 0x00 (0000ms, 0763ms total)
T255C 001:185 JLINK_WriteReg(R8, 0x00000000)  returns 0x00 (0000ms, 0763ms total)
T255C 001:185 JLINK_WriteReg(R9, 0x200006F8)  returns 0x00 (0000ms, 0763ms total)
T255C 001:185 JLINK_WriteReg(R10, 0x00000000)  returns 0x00 (0000ms, 0763ms total)
T255C 001:185 JLINK_WriteReg(R11, 0x00000000)  returns 0x00 (0000ms, 0763ms total)
T255C 001:185 JLINK_WriteReg(R12, 0x00000000)  returns 0x00 (0000ms, 0763ms total)
T255C 001:185 JLINK_WriteReg(R13 (SP), 0x20008000)  returns 0x00 (0000ms, 0763ms total)
T255C 001:185 JLINK_WriteReg(R14, 0x20000001)  returns 0x00 (0000ms, 0763ms total)
T255C 001:185 JLINK_WriteReg(R15 (PC), 0x20000068)  returns 0x00 (0000ms, 0763ms total)
T255C 001:185 JLINK_WriteReg(XPSR, 0x01000000)  returns 0x00 (0000ms, 0763ms total)
T255C 001:185 JLINK_WriteReg(MSP, 0x20008000)  returns 0x00 (0000ms, 0763ms total)
T255C 001:185 JLINK_WriteReg(PSP, 0x20008000)  returns 0x00 (0000ms, 0763ms total)
T255C 001:185 JLINK_WriteReg(CFBP, 0x00000000)  returns 0x00 (0000ms, 0763ms total)
T255C 001:185 JLINK_SetBPEx(Addr = 0x20000000, Type = 0xFFFFFFF2)  returns 0x00000009 (0000ms, 0763ms total)
T255C 001:185 JLINK_Go() -- CPU_ReadMem(4 bytes @ 0xE0001000) -- CPU_WriteMem(4 bytes @ 0xE0001000) (0005ms, 0768ms total)
T255C 001:190 JLINK_IsHalted()  returns FALSE (0000ms, 0768ms total)
T255C 001:193 JLINK_IsHalted() -- CPU_ReadMem(2 bytes @ 0x20000000)  returns TRUE (0005ms, 0773ms total)
T255C 001:199 JLINK_ReadReg(R15 (PC))  returns 0x20000000 (0000ms, 0768ms total)
T255C 001:199 JLINK_ClrBPEx(BPHandle = 0x00000009)  returns 0x00 (0000ms, 0768ms total)
T255C 001:199 JLINK_ReadReg(R0)  returns 0x00000000 (0000ms, 0768ms total)
T255C 001:199 JLINK_WriteReg(R0, 0x00000002)  returns 0x00 (0000ms, 0768ms total)
T255C 001:199 JLINK_WriteReg(R1, 0x00000034)  returns 0x00 (0000ms, 0768ms total)
T255C 001:199 JLINK_WriteReg(R2, 0x20000808)  returns 0x00 (0000ms, 0768ms total)
T255C 001:199 JLINK_WriteReg(R3, 0x00000000)  returns 0x00 (0000ms, 0768ms total)
T255C 001:199 JLINK_WriteReg(R4, 0x00000000)  returns 0x00 (0000ms, 0768ms total)
T255C 001:199 JLINK_WriteReg(R5, 0x00000000)  returns 0x00 (0000ms, 0768ms total)
T255C 001:199 JLINK_WriteReg(R6, 0x00000000)  returns 0x00 (0000ms, 0768ms total)
T255C 001:199 JLINK_WriteReg(R7, 0x00000000)  returns 0x00 (0000ms, 0768ms total)
T255C 001:199 JLINK_WriteReg(R8, 0x00000000)  returns 0x00 (0000ms, 0768ms total)
T255C 001:199 JLINK_WriteReg(R9, 0x200006F8)  returns 0x00 (0000ms, 0768ms total)
T255C 001:199 JLINK_WriteReg(R10, 0x00000000)  returns 0x00 (0000ms, 0768ms total)
T255C 001:199 JLINK_WriteReg(R11, 0x00000000)  returns 0x00 (0000ms, 0768ms total)
T255C 001:199 JLINK_WriteReg(R12, 0x00000000)  returns 0x00 (0000ms, 0768ms total)
T255C 001:199 JLINK_WriteReg(R13 (SP), 0x20008000)  returns 0x00 (0000ms, 0768ms total)
T255C 001:199 JLINK_WriteReg(R14, 0x20000001)  returns 0x00 (0000ms, 0768ms total)
T255C 001:199 JLINK_WriteReg(R15 (PC), 0x200001C8)  returns 0x00 (0000ms, 0768ms total)
T255C 001:199 JLINK_WriteReg(XPSR, 0x01000000)  returns 0x00 (0000ms, 0768ms total)
T255C 001:199 JLINK_WriteReg(MSP, 0x20008000)  returns 0x00 (0000ms, 0768ms total)
T255C 001:199 JLINK_WriteReg(PSP, 0x20008000)  returns 0x00 (0000ms, 0768ms total)
T255C 001:199 JLINK_WriteReg(CFBP, 0x00000000)  returns 0x00 (0000ms, 0768ms total)
T255C 001:199 JLINK_SetBPEx(Addr = 0x20000000, Type = 0xFFFFFFF2)  returns 0x0000000A (0000ms, 0768ms total)
T255C 001:199 JLINK_Go() -- CPU_ReadMem(4 bytes @ 0xE0001000) -- CPU_WriteMem(4 bytes @ 0xE0001000) (0004ms, 0772ms total)
T255C 001:203 JLINK_IsHalted() -- CPU_ReadMem(2 bytes @ 0x20000000)  returns TRUE (0005ms, 0777ms total)
T255C 001:208 JLINK_ReadReg(R15 (PC))  returns 0x20000000 (0000ms, 0772ms total)
T255C 001:208 JLINK_ClrBPEx(BPHandle = 0x0000000A)  returns 0x00 (0000ms, 0772ms total)
T255C 001:208 JLINK_ReadReg(R0)  returns 0x00000000 (0000ms, 0772ms total)
T255C 001:278 JLINK_WriteMem(0x20000000, 0x0708 Bytes, ...) - Data: 00 BE 0A E0 0D 78 2D 06 68 40 08 24 40 00 00 D3 ... -- CPU_WriteMem(1800 bytes @ 0x20000000)  returns 0x708 (0027ms, 0799ms total)
T255C 001:305 JLINK_WriteReg(R0, 0x00000000)  returns 0x00 (0000ms, 0799ms total)
T255C 001:305 JLINK_WriteReg(R1, 0x00B71B00)  returns 0x00 (0000ms, 0799ms total)
T255C 001:305 JLINK_WriteReg(R2, 0x00000003)  returns 0x00 (0000ms, 0799ms total)
T255C 001:305 JLINK_WriteReg(R3, 0x00000000)  returns 0x00 (0000ms, 0799ms total)
T255C 001:305 JLINK_WriteReg(R4, 0x00000000)  returns 0x00 (0000ms, 0799ms total)
T255C 001:305 JLINK_WriteReg(R5, 0x00000000)  returns 0x00 (0000ms, 0799ms total)
T255C 001:305 JLINK_WriteReg(R6, 0x00000000)  returns 0x00 (0000ms, 0799ms total)
T255C 001:305 JLINK_WriteReg(R7, 0x00000000)  returns 0x00 (0000ms, 0799ms total)
T255C 001:305 JLINK_WriteReg(R8, 0x00000000)  returns 0x00 (0000ms, 0799ms total)
T255C 001:305 JLINK_WriteReg(R9, 0x200006F8)  returns 0x00 (0000ms, 0799ms total)
T255C 001:305 JLINK_WriteReg(R10, 0x00000000)  returns 0x00 (0000ms, 0799ms total)
T255C 001:305 JLINK_WriteReg(R11, 0x00000000)  returns 0x00 (0000ms, 0799ms total)
T255C 001:305 JLINK_WriteReg(R12, 0x00000000)  returns 0x00 (0000ms, 0799ms total)
T255C 001:305 JLINK_WriteReg(R13 (SP), 0x20008000)  returns 0x00 (0000ms, 0799ms total)
T255C 001:305 JLINK_WriteReg(R14, 0x20000001)  returns 0x00 (0000ms, 0799ms total)
T255C 001:305 JLINK_WriteReg(R15 (PC), 0x2000003C)  returns 0x00 (0000ms, 0799ms total)
T255C 001:305 JLINK_WriteReg(XPSR, 0x01000000)  returns 0x00 (0000ms, 0799ms total)
T255C 001:305 JLINK_WriteReg(MSP, 0x20008000)  returns 0x00 (0000ms, 0799ms total)
T255C 001:305 JLINK_WriteReg(PSP, 0x20008000)  returns 0x00 (0000ms, 0799ms total)
T255C 001:305 JLINK_WriteReg(CFBP, 0x00000000)  returns 0x00 (0000ms, 0799ms total)
T255C 001:305 JLINK_SetBPEx(Addr = 0x20000000, Type = 0xFFFFFFF2) -- CPU_ReadMem(4 bytes @ 0x20000000) -- CPU_WriteMem(4 bytes @ 0x20000000) -- CPU_ReadMem(4 bytes @ 0x20000000) -- CPU_WriteMem(4 bytes @ 0x20000000) -- CPU_ReadMem(2 bytes @ 0x20000000)  returns 0x0000000B (0004ms, 0803ms total)
T255C 001:309 JLINK_Go() -- CPU_WriteMem(2 bytes @ 0x20000000) -- CPU_ReadMem(4 bytes @ 0xE0001000) -- CPU_WriteMem(4 bytes @ 0xE0001000) (0005ms, 0808ms total)
T255C 001:314 JLINK_IsHalted()  returns FALSE (0001ms, 0809ms total)
T255C 001:318 JLINK_IsHalted()  returns FALSE (0000ms, 0808ms total)
T255C 001:320 JLINK_IsHalted()  returns FALSE (0001ms, 0809ms total)
T255C 001:322 JLINK_IsHalted()  returns FALSE (0001ms, 0809ms total)
T255C 001:325 JLINK_IsHalted()  returns FALSE (0001ms, 0809ms total)
T255C 001:328 JLINK_IsHalted() -- CPU_ReadMem(2 bytes @ 0x20000000)  returns TRUE (0004ms, 0812ms total)
T255C 001:333 JLINK_ReadReg(R15 (PC))  returns 0x20000000 (0000ms, 0808ms total)
T255C 001:333 JLINK_ClrBPEx(BPHandle = 0x0000000B)  returns 0x00 (0000ms, 0808ms total)
T255C 001:333 JLINK_ReadReg(R0)  returns 0x00000000 (0000ms, 0808ms total)
T255C 001:333 JLINK_WriteMem(0x20000808, 0x0100 Bytes, ...) - Data: 08 04 00 20 B1 00 00 00 B9 00 00 00 CD 00 00 00 ... -- CPU_WriteMem(256 bytes @ 0x20000808)  returns 0x100 (0005ms, 0813ms total)
T255C 001:338 JLINK_WriteReg(R0, 0x00000000)  returns 0x00 (0000ms, 0813ms total)
T255C 001:338 JLINK_WriteReg(R1, 0x00000100)  returns 0x00 (0000ms, 0813ms total)
T255C 001:338 JLINK_WriteReg(R2, 0x20000808)  returns 0x00 (0000ms, 0813ms total)
T255C 001:338 JLINK_WriteReg(R3, 0x00000000)  returns 0x00 (0000ms, 0813ms total)
T255C 001:338 JLINK_WriteReg(R4, 0x00000000)  returns 0x00 (0000ms, 0813ms total)
T255C 001:338 JLINK_WriteReg(R5, 0x00000000)  returns 0x00 (0000ms, 0813ms total)
T255C 001:338 JLINK_WriteReg(R6, 0x00000000)  returns 0x00 (0000ms, 0813ms total)
T255C 001:338 JLINK_WriteReg(R7, 0x00000000)  returns 0x00 (0000ms, 0813ms total)
T255C 001:338 JLINK_WriteReg(R8, 0x00000000)  returns 0x00 (0000ms, 0813ms total)
T255C 001:338 JLINK_WriteReg(R9, 0x200006F8)  returns 0x00 (0000ms, 0813ms total)
T255C 001:338 JLINK_WriteReg(R10, 0x00000000)  returns 0x00 (0000ms, 0813ms total)
T255C 001:338 JLINK_WriteReg(R11, 0x00000000)  returns 0x00 (0000ms, 0813ms total)
T255C 001:338 JLINK_WriteReg(R12, 0x00000000)  returns 0x00 (0000ms, 0813ms total)
T255C 001:338 JLINK_WriteReg(R13 (SP), 0x20008000)  returns 0x00 (0000ms, 0813ms total)
T255C 001:338 JLINK_WriteReg(R14, 0x20000001)  returns 0x00 (0001ms, 0814ms total)
T255C 001:339 JLINK_WriteReg(R15 (PC), 0x200001CC)  returns 0x00 (0000ms, 0814ms total)
T255C 001:339 JLINK_WriteReg(XPSR, 0x01000000)  returns 0x00 (0000ms, 0814ms total)
T255C 001:339 JLINK_WriteReg(MSP, 0x20008000)  returns 0x00 (0000ms, 0814ms total)
T255C 001:339 JLINK_WriteReg(PSP, 0x20008000)  returns 0x00 (0000ms, 0814ms total)
T255C 001:339 JLINK_WriteReg(CFBP, 0x00000000)  returns 0x00 (0000ms, 0814ms total)
T255C 001:339 JLINK_SetBPEx(Addr = 0x20000000, Type = 0xFFFFFFF2)  returns 0x0000000C (0000ms, 0814ms total)
T255C 001:339 JLINK_Go() -- CPU_ReadMem(4 bytes @ 0xE0001000) -- CPU_WriteMem(4 bytes @ 0xE0001000) (0004ms, 0818ms total)
T255C 001:343 JLINK_IsHalted() -- CPU_ReadMem(2 bytes @ 0x20000000)  returns TRUE (0007ms, 0825ms total)
T255C 001:350 JLINK_ReadReg(R15 (PC))  returns 0x20000000 (0000ms, 0818ms total)
T255C 001:350 JLINK_ClrBPEx(BPHandle = 0x0000000C)  returns 0x00 (0000ms, 0818ms total)
T255C 001:350 JLINK_ReadReg(R0)  returns 0x00000100 (0000ms, 0818ms total)
T255C 001:351 JLINK_WriteMem(0x20000808, 0x0100 Bytes, ...) - Data: 03 48 85 46 00 F0 06 F8 00 48 00 47 D9 02 00 00 ... -- CPU_WriteMem(256 bytes @ 0x20000808)  returns 0x100 (0005ms, 0823ms total)
T255C 001:356 JLINK_WriteReg(R0, 0x00000100)  returns 0x00 (0000ms, 0823ms total)
T255C 001:356 JLINK_WriteReg(R1, 0x00000100)  returns 0x00 (0001ms, 0824ms total)
T255C 001:357 JLINK_WriteReg(R2, 0x20000808)  returns 0x00 (0000ms, 0824ms total)
T255C 001:357 JLINK_WriteReg(R3, 0x00000000)  returns 0x00 (0000ms, 0824ms total)
T255C 001:357 JLINK_WriteReg(R4, 0x00000000)  returns 0x00 (0000ms, 0824ms total)
T255C 001:357 JLINK_WriteReg(R5, 0x00000000)  returns 0x00 (0000ms, 0824ms total)
T255C 001:357 JLINK_WriteReg(R6, 0x00000000)  returns 0x00 (0000ms, 0824ms total)
T255C 001:357 JLINK_WriteReg(R7, 0x00000000)  returns 0x00 (0000ms, 0824ms total)
T255C 001:357 JLINK_WriteReg(R8, 0x00000000)  returns 0x00 (0000ms, 0824ms total)
T255C 001:357 JLINK_WriteReg(R9, 0x200006F8)  returns 0x00 (0000ms, 0824ms total)
T255C 001:357 JLINK_WriteReg(R10, 0x00000000)  returns 0x00 (0000ms, 0824ms total)
T255C 001:357 JLINK_WriteReg(R11, 0x00000000)  returns 0x00 (0000ms, 0824ms total)
T255C 001:357 JLINK_WriteReg(R12, 0x00000000)  returns 0x00 (0000ms, 0824ms total)
T255C 001:357 JLINK_WriteReg(R13 (SP), 0x20008000)  returns 0x00 (0000ms, 0824ms total)
T255C 001:357 JLINK_WriteReg(R14, 0x20000001)  returns 0x00 (0000ms, 0824ms total)
T255C 001:357 JLINK_WriteReg(R15 (PC), 0x200001CC)  returns 0x00 (0000ms, 0824ms total)
T255C 001:358 JLINK_WriteReg(XPSR, 0x01000000)  returns 0x00 (0000ms, 0825ms total)
T255C 001:358 JLINK_WriteReg(MSP, 0x20008000)  returns 0x00 (0000ms, 0825ms total)
T255C 001:358 JLINK_WriteReg(PSP, 0x20008000)  returns 0x00 (0000ms, 0825ms total)
T255C 001:358 JLINK_WriteReg(CFBP, 0x00000000)  returns 0x00 (0000ms, 0825ms total)
T255C 001:358 JLINK_SetBPEx(Addr = 0x20000000, Type = 0xFFFFFFF2)  returns 0x0000000D (0000ms, 0825ms total)
T255C 001:358 JLINK_Go() -- CPU_ReadMem(4 bytes @ 0xE0001000) -- CPU_WriteMem(4 bytes @ 0xE0001000) (0003ms, 0828ms total)
T255C 001:362 JLINK_IsHalted() -- CPU_ReadMem(2 bytes @ 0x20000000)  returns TRUE (0005ms, 0833ms total)
T255C 001:367 JLINK_ReadReg(R15 (PC))  returns 0x20000000 (0000ms, 0828ms total)
T255C 001:367 JLINK_ClrBPEx(BPHandle = 0x0000000D)  returns 0x00 (0000ms, 0828ms total)
T255C 001:367 JLINK_ReadReg(R0)  returns 0x00000200 (0000ms, 0828ms total)
T255C 001:368 JLINK_WriteMem(0x20000808, 0x0100 Bytes, ...) - Data: 00 2B 08 D0 83 00 1B 19 1D 68 ED 08 ED 00 1D 60 ... -- CPU_WriteMem(256 bytes @ 0x20000808)  returns 0x100 (0005ms, 0833ms total)
T255C 001:373 JLINK_WriteReg(R0, 0x00000200)  returns 0x00 (0000ms, 0833ms total)
T255C 001:373 JLINK_WriteReg(R1, 0x00000100)  returns 0x00 (0000ms, 0833ms total)
T255C 001:373 JLINK_WriteReg(R2, 0x20000808)  returns 0x00 (0001ms, 0834ms total)
T255C 001:374 JLINK_WriteReg(R3, 0x00000000)  returns 0x00 (0000ms, 0834ms total)
T255C 001:374 JLINK_WriteReg(R4, 0x00000000)  returns 0x00 (0000ms, 0834ms total)
T255C 001:374 JLINK_WriteReg(R5, 0x00000000)  returns 0x00 (0000ms, 0834ms total)
T255C 001:374 JLINK_WriteReg(R6, 0x00000000)  returns 0x00 (0000ms, 0834ms total)
T255C 001:374 JLINK_WriteReg(R7, 0x00000000)  returns 0x00 (0000ms, 0834ms total)
T255C 001:374 JLINK_WriteReg(R8, 0x00000000)  returns 0x00 (0000ms, 0834ms total)
T255C 001:374 JLINK_WriteReg(R9, 0x200006F8)  returns 0x00 (0000ms, 0834ms total)
T255C 001:374 JLINK_WriteReg(R10, 0x00000000)  returns 0x00 (0000ms, 0834ms total)
T255C 001:374 JLINK_WriteReg(R11, 0x00000000)  returns 0x00 (0000ms, 0834ms total)
T255C 001:374 JLINK_WriteReg(R12, 0x00000000)  returns 0x00 (0000ms, 0834ms total)
T255C 001:374 JLINK_WriteReg(R13 (SP), 0x20008000)  returns 0x00 (0000ms, 0834ms total)
T255C 001:374 JLINK_WriteReg(R14, 0x20000001)  returns 0x00 (0000ms, 0834ms total)
T255C 001:374 JLINK_WriteReg(R15 (PC), 0x200001CC)  returns 0x00 (0000ms, 0834ms total)
T255C 001:374 JLINK_WriteReg(XPSR, 0x01000000)  returns 0x00 (0000ms, 0834ms total)
T255C 001:374 JLINK_WriteReg(MSP, 0x20008000)  returns 0x00 (0001ms, 0835ms total)
T255C 001:375 JLINK_WriteReg(PSP, 0x20008000)  returns 0x00 (0000ms, 0835ms total)
T255C 001:375 JLINK_WriteReg(CFBP, 0x00000000)  returns 0x00 (0000ms, 0835ms total)
T255C 001:375 JLINK_SetBPEx(Addr = 0x20000000, Type = 0xFFFFFFF2)  returns 0x0000000E (0000ms, 0835ms total)
T255C 001:375 JLINK_Go() -- CPU_ReadMem(4 bytes @ 0xE0001000) -- CPU_WriteMem(4 bytes @ 0xE0001000) (0003ms, 0838ms total)
T255C 001:378 JLINK_IsHalted() -- CPU_ReadMem(2 bytes @ 0x20000000)  returns TRUE (0006ms, 0844ms total)
T255C 001:384 JLINK_ReadReg(R15 (PC))  returns 0x20000000 (0000ms, 0838ms total)
T255C 001:384 JLINK_ClrBPEx(BPHandle = 0x0000000E)  returns 0x00 (0000ms, 0838ms total)
T255C 001:384 JLINK_ReadReg(R0)  returns 0x00000300 (0000ms, 0838ms total)
T255C 001:392 JLINK_WriteMem(0x20000808, 0x0100 Bytes, ...) - Data: 07 22 CB 69 1B 02 1B 0A 44 04 23 43 CB 61 00 21 ... -- CPU_WriteMem(256 bytes @ 0x20000808)  returns 0x100 (0004ms, 0842ms total)
T255C 001:396 JLINK_WriteReg(R0, 0x00000300)  returns 0x00 (0000ms, 0842ms total)
T255C 001:396 JLINK_WriteReg(R1, 0x00000034)  returns 0x00 (0000ms, 0842ms total)
T255C 001:396 JLINK_WriteReg(R2, 0x20000808)  returns 0x00 (0000ms, 0842ms total)
T255C 001:396 JLINK_WriteReg(R3, 0x00000000)  returns 0x00 (0000ms, 0842ms total)
T255C 001:396 JLINK_WriteReg(R4, 0x00000000)  returns 0x00 (0000ms, 0842ms total)
T255C 001:396 JLINK_WriteReg(R5, 0x00000000)  returns 0x00 (0000ms, 0842ms total)
T255C 001:396 JLINK_WriteReg(R6, 0x00000000)  returns 0x00 (0000ms, 0842ms total)
T255C 001:396 JLINK_WriteReg(R7, 0x00000000)  returns 0x00 (0000ms, 0842ms total)
T255C 001:396 JLINK_WriteReg(R8, 0x00000000)  returns 0x00 (0000ms, 0842ms total)
T255C 001:396 JLINK_WriteReg(R9, 0x200006F8)  returns 0x00 (0000ms, 0842ms total)
T255C 001:396 JLINK_WriteReg(R10, 0x00000000)  returns 0x00 (0000ms, 0842ms total)
T255C 001:396 JLINK_WriteReg(R11, 0x00000000)  returns 0x00 (0000ms, 0842ms total)
T255C 001:396 JLINK_WriteReg(R12, 0x00000000)  returns 0x00 (0000ms, 0842ms total)
T255C 001:396 JLINK_WriteReg(R13 (SP), 0x20008000)  returns 0x00 (0000ms, 0842ms total)
T255C 001:396 JLINK_WriteReg(R14, 0x20000001)  returns 0x00 (0000ms, 0842ms total)
T255C 001:396 JLINK_WriteReg(R15 (PC), 0x200001CC)  returns 0x00 (0000ms, 0842ms total)
T255C 001:396 JLINK_WriteReg(XPSR, 0x01000000)  returns 0x00 (0000ms, 0842ms total)
T255C 001:396 JLINK_WriteReg(MSP, 0x20008000)  returns 0x00 (0000ms, 0842ms total)
T255C 001:396 JLINK_WriteReg(PSP, 0x20008000)  returns 0x00 (0000ms, 0842ms total)
T255C 001:396 JLINK_WriteReg(CFBP, 0x00000000)  returns 0x00 (0000ms, 0842ms total)
T255C 001:396 JLINK_SetBPEx(Addr = 0x20000000, Type = 0xFFFFFFF2)  returns 0x0000000F (0000ms, 0842ms total)
T255C 001:396 JLINK_Go() -- CPU_ReadMem(4 bytes @ 0xE0001000) -- CPU_WriteMem(4 bytes @ 0xE0001000) (0004ms, 0846ms total)
T255C 001:400 JLINK_IsHalted() -- CPU_ReadMem(2 bytes @ 0x20000000)  returns TRUE (0005ms, 0851ms total)
T255C 001:405 JLINK_ReadReg(R15 (PC))  returns 0x20000000 (0000ms, 0846ms total)
T255C 001:405 JLINK_ClrBPEx(BPHandle = 0x0000000F)  returns 0x00 (0000ms, 0846ms total)
T255C 001:405 JLINK_ReadReg(R0)  returns 0x00000334 (0000ms, 0846ms total)
T255C 001:407 JLINK_WriteReg(R0, 0x00000003)  returns 0x00 (0000ms, 0846ms total)
T255C 001:407 JLINK_WriteReg(R1, 0x00000034)  returns 0x00 (0000ms, 0846ms total)
T255C 001:407 JLINK_WriteReg(R2, 0x20000808)  returns 0x00 (0000ms, 0846ms total)
T255C 001:407 JLINK_WriteReg(R3, 0x00000000)  returns 0x00 (0000ms, 0846ms total)
T255C 001:407 JLINK_WriteReg(R4, 0x00000000)  returns 0x00 (0000ms, 0846ms total)
T255C 001:407 JLINK_WriteReg(R5, 0x00000000)  returns 0x00 (0000ms, 0846ms total)
T255C 001:407 JLINK_WriteReg(R6, 0x00000000)  returns 0x00 (0000ms, 0846ms total)
T255C 001:407 JLINK_WriteReg(R7, 0x00000000)  returns 0x00 (0000ms, 0846ms total)
T255C 001:407 JLINK_WriteReg(R8, 0x00000000)  returns 0x00 (0000ms, 0846ms total)
T255C 001:407 JLINK_WriteReg(R9, 0x200006F8)  returns 0x00 (0000ms, 0846ms total)
T255C 001:407 JLINK_WriteReg(R10, 0x00000000)  returns 0x00 (0000ms, 0846ms total)
T255C 001:407 JLINK_WriteReg(R11, 0x00000000)  returns 0x00 (0000ms, 0846ms total)
T255C 001:407 JLINK_WriteReg(R12, 0x00000000)  returns 0x00 (0000ms, 0846ms total)
T255C 001:407 JLINK_WriteReg(R13 (SP), 0x20008000)  returns 0x00 (0000ms, 0846ms total)
T255C 001:407 JLINK_WriteReg(R14, 0x20000001)  returns 0x00 (0001ms, 0847ms total)
T255C 001:408 JLINK_WriteReg(R15 (PC), 0x200001C8)  returns 0x00 (0000ms, 0847ms total)
T255C 001:408 JLINK_WriteReg(XPSR, 0x01000000)  returns 0x00 (0000ms, 0847ms total)
T255C 001:408 JLINK_WriteReg(MSP, 0x20008000)  returns 0x00 (0000ms, 0847ms total)
T255C 001:408 JLINK_WriteReg(PSP, 0x20008000)  returns 0x00 (0000ms, 0847ms total)
T255C 001:408 JLINK_WriteReg(CFBP, 0x00000000)  returns 0x00 (0000ms, 0847ms total)
T255C 001:408 JLINK_SetBPEx(Addr = 0x20000000, Type = 0xFFFFFFF2)  returns 0x00000010 (0000ms, 0847ms total)
T255C 001:408 JLINK_Go() -- CPU_ReadMem(4 bytes @ 0xE0001000) -- CPU_WriteMem(4 bytes @ 0xE0001000) (0005ms, 0852ms total)
T255C 001:413 JLINK_IsHalted() -- CPU_ReadMem(2 bytes @ 0x20000000)  returns TRUE (0006ms, 0858ms total)
T255C 001:419 JLINK_ReadReg(R15 (PC))  returns 0x20000000 (0000ms, 0852ms total)
T255C 001:419 JLINK_ClrBPEx(BPHandle = 0x00000010)  returns 0x00 (0000ms, 0852ms total)
T255C 001:419 JLINK_ReadReg(R0)  returns 0x00000000 (0000ms, 0852ms total)
T255C 001:473 JLINK_WriteMem(0x20000000, 0x0002 Bytes, ...) - Data: FE E7 -- CPU_WriteMem(2 bytes @ 0x20000000)  returns 0x02 (0001ms, 0853ms total)
T255C 001:475 JLINK_SetResetType(JLINKARM_RESET_TYPE_NORMAL)  returns JLINKARM_RESET_TYPE_NORMAL (0000ms, 0853ms total)
T255C 001:475 JLINK_Reset() -- CPU_ReadMem(4 bytes @ 0x20000808) -- CPU_WriteMem(4 bytes @ 0x20000808) -- CPU_WriteMem(4 bytes @ 0xE000EDF0) -- CPU_WriteMem(4 bytes @ 0xE000EDFC) >0x35 TIF> -- CPU_WriteMem(4 bytes @ 0xE000ED0C) -- CPU_ReadMem(4 bytes @ 0xE000EDF0) -- CPU_ReadMem(4 bytes @ 0xE000EDF0) -- CPU_WriteMem(4 bytes @ 0xE000EDF0) -- CPU_WriteMem(4 bytes @ 0xE000EDFC) -- CPU is running -- CPU_ReadMem(4 bytes @ 0xE000EDF0) -- CPU_WriteMem(4 bytes @ 0xE0002000) -- CPU_ReadMem(4 bytes @ 0xE000EDFC)
 -- CPU_ReadMem(4 bytes @ 0xE0001000) -- CPU_WriteMem(4 bytes @ 0xE0001000) (0023ms, 0876ms total)
T255C 001:498 JLINK_Go() -- CPU_ReadMem(4 bytes @ 0xE0001000) -- CPU_WriteMem(4 bytes @ 0xE0001000) -- CPU_WriteMem(4 bytes @ 0xE0002008) -- CPU_WriteMem(4 bytes @ 0xE000200C) -- CPU_WriteMem(4 bytes @ 0xE0002010) -- CPU_WriteMem(4 bytes @ 0xE0002014) -- CPU_WriteMem(4 bytes @ 0xE0001004) (0005ms, 0881ms total)
T255C 001:521 JLINK_Close() -- CPU is running -- CPU_WriteMem(4 bytes @ 0xE0002008) -- CPU is running -- CPU_WriteMem(4 bytes @ 0xE000200C) -- CPU is running -- CPU_WriteMem(4 bytes @ 0xE0002010) -- CPU is running -- CPU_WriteMem(4 bytes @ 0xE0002014) >0x42 TIF> >0x28 TIF> >0x0D TIF> >0x21 TIF> (0005ms, 0886ms total)
T255C 001:521  (0005ms, 0886ms total)
T255C 001:521 Closed (0005ms, 0886ms total)
