


ARM Macro Assembler    Page 1 


    1 00000000         ;******************** (C) COPYRIGHT 2012 ALPSCALE ******
                       **************
    2 00000000         ;* File Name          : startup_m1130.s
    3 00000000         ;* Author             : MCD Application Team
    4 00000000         ;* Version            : V1.0.1
    5 00000000         ;* Date               : 20-April-2012
    6 00000000         ;* Description        : m1130 Devices vector table for M
                       DK-ARM toolchain.
    7 00000000         ;*                      This module performs:
    8 00000000         ;*                      - Set the initial SP
    9 00000000         ;*                      - Set the initial PC == Reset_Ha
                       ndler
   10 00000000         ;*                      - Set the vector table entries w
                       ith the exceptions ISR address
   11 00000000         ;*                      - Branches to __main in the C li
                       brary (which eventually
   12 00000000         ;*                        calls main()).
   13 00000000         ;*                      After Reset the CortexM0 process
                       or is in Thread mode,
   14 00000000         ;*                      priority is Privileged, and the 
                       Stack is set to Main.
   15 00000000         ;* <<< Use Configuration Wizard in Context Menu >>>   
   16 00000000         ;*******************************************************
                       ************************
   17 00000000         ;  @attention
   18 00000000         ; 
   19 00000000         ;  Licensed under MCD-ST Liberty SW License Agreement V2
                       , (the "License");
   20 00000000         ;  You may not use this file except in compliance with t
                       he License.
   21 00000000         ;  You may obtain a copy of the License at:
   22 00000000         ; 
   23 00000000         ;         http://www.st.com/software_license_agreement_l
                       iberty_v2
   24 00000000         ; 
   25 00000000         ;  Unless required by applicable law or agreed to in wri
                       ting, software 
   26 00000000         ;  distributed under the License is distributed on an "A
                       S IS" BASIS, 
   27 00000000         ;  WITHOUT WARRANTIES OR CONDITIONS OF ANY KIND, either 
                       express or implied.
   28 00000000         ;  See the License for the specific language governing p
                       ermissions and
   29 00000000         ;  limitations under the License.
   30 00000000         ; 
   31 00000000         ;*******************************************************
                       ************************
   32 00000000         ;
   33 00000000         ; Amount of memory (in bytes) allocated for Stack
   34 00000000         ; Tailor this value to your application needs
   35 00000000         ; <h> Stack Configuration
   36 00000000         ;   <o> Stack Size (in Bytes) <0x0-0xFFFFFFFF:8>
   37 00000000         ; </h>
   38 00000000         
   39 00000000 00000400 
                       Stack_Size
                               EQU              0x00000400
   40 00000000         
   41 00000000                 AREA             STACK, NOINIT, READWRITE, ALIGN



ARM Macro Assembler    Page 2 


=3
   42 00000000         Stack_Mem
                               SPACE            Stack_Size
   43 00000400         __initial_sp
   44 00000400         
   45 00000400         
   46 00000400         ; <h> Heap Configuration
   47 00000400         ;   <o>  Heap Size (in Bytes) <0x0-0xFFFFFFFF:8>
   48 00000400         ; </h>
   49 00000400         
   50 00000400 00000200 
                       Heap_Size
                               EQU              0x00000200
   51 00000400         
   52 00000400                 AREA             HEAP, NOINIT, READWRITE, ALIGN=
3
   53 00000000         __heap_base
   54 00000000         Heap_Mem
                               SPACE            Heap_Size
   55 00000200         __heap_limit
   56 00000200         
   57 00000200                 PRESERVE8
   58 00000200                 THUMB
   59 00000200         
   60 00000200         
   61 00000200         ; Vector Table Mapped to Address 0 at Reset
   62 00000200                 AREA             RESET, DATA, READONLY
   63 00000000                 EXPORT           __Vectors
   64 00000000                 EXPORT           __Vectors_End
   65 00000000                 EXPORT           __Vectors_Size
   66 00000000         
   67 00000000 00000000 
                       __Vectors
                               DCD              __initial_sp ; Top of Stack
   68 00000004 00000000        DCD              Reset_Handler ; Reset Handler
   69 00000008 00000000        DCD              NMI_Handler ; NMI Handler
   70 0000000C 00000000        DCD              HardFault_Handler ; Hard Fault 
                                                            Handler
   71 00000010 00000000        DCD              0           ; Reserved
   72 00000014 00000000        DCD              0           ; Reserved
   73 00000018 00000000        DCD              0           ; Reserved
   74 0000001C 00000000        DCD              0           ; Reserved
   75 00000020 00000000        DCD              0           ; Reserved
   76 00000024 00000000        DCD              0           ; Reserved
   77 00000028 00000000        DCD              0           ; Reserved
   78 0000002C 00000000        DCD              SVC_Handler ; SVCall Handler
   79 00000030 00000000        DCD              0           ; Reserved
   80 00000034 00000000        DCD              0           ; Reserved
   81 00000038 00000000        DCD              PendSV_Handler ; PendSV Handler
                                                            
   82 0000003C 00000000        DCD              SysTick_Handler 
                                                            ; SysTick Handler
   83 00000040         
   84 00000040         ; External Interrupts
   85 00000040 00000000        DCD              WKT_IRQHandler ; 0            
   86 00000044 00000000        DCD              TIM1_IRQHandler 
                                                            ; 1             
   87 00000048 00000000        DCD              TIM15_IRQHandler ; 2
   88 0000004C 00000000        DCD              TIM16_IRQHandler ; 3



ARM Macro Assembler    Page 3 


   89 00000050 00000000        DCD              TIM17_IRQHandler ; 4
   90 00000054 00000000        DCD              RTC_IRQHandler ; 5            
   91 00000058 00000000        DCD              USB0_IRQHandler ; 6            
                                                            
   92 0000005C 00000000        DCD              USB0_DMA_IRQHandler ; 7
   93 00000060 00000000        DCD              TIM4_IRQHandler ; 8            
                                                            
   94 00000064 00000000        DCD              UART0_IRQHandler ; 9 --UART0 IR
                                                            
   95 00000068 00000000        DCD              UART1_IRQHandler 
                                                            ; 10 --UART1 IR
   96 0000006C 00000000        DCD              I2C0_IRQHandler ; 11 --I2C0 IRQ
                                                            
   97 00000070 00000000        DCD              UART2_IRQHandler 
                                                            ; 12 --UART2 IR
   98 00000074 00000000        DCD              QSPI0_IRQHandler 
                                                            ; 13 --QSPI0 IRQ
   99 00000078 00000000        DCD              QSPI1_IRQHandler 
                                                            ; 14 --QSPI1 IRQ
  100 0000007C 00000000        DCD              QSPI2_IRQHandler 
                                                            ; 15 --QSPI2 IRQ
  101 00000080 00000000        DCD              DMA_IRQHandler ; 16 --DMA IRQ 
  102 00000084 00000000        DCD              GPIO0_IRQHandler 
                                                            ; 17 --GPIO0_IR
  103 00000088 00000000        DCD              GPIO1_IRQHandler 
                                                            ; 18 --GPIO1_IR
  104 0000008C 00000000        DCD              ADC0_IRQHandler ; 19 --ADC0_IRQ
                                                            
  105 00000090 00000000        DCD              0           ; 
  106 00000094 00000000        DCD              BOD_IRQHandler ; 21 --BOD_IRQ 
  107 00000098 00000000        DCD              BOR_IRQHandler ; 22 --BOR_IRQ 
  108 0000009C 00000000        DCD              CMP_IRQHandler ; 23 --CMP_IRQ 
  109 000000A0 00000000        DCD              0           ; 
  110 000000A4 00000000        DCD              0           ; 
  111 000000A8 00000000        DCD              LED_IRQHandler ; 26 LED IRQ
  112 000000AC 00000000        DCD              BITCOPY_IRQHandler 
                                                            ; 27 BITCOPY IRQ
  113 000000B0         
  114 000000B0         __Vectors_End
  115 000000B0         
  116 000000B0 000000B0 
                       __Vectors_Size
                               EQU              __Vectors_End - __Vectors
  117 000000B0         
  118 000000B0                 AREA             |.text|, CODE, READONLY
  119 00000000         
  120 00000000         ; Reset handler routine
  121 00000000         Reset_Handler
                               PROC
  122 00000000                 EXPORT           Reset_Handler                 [
WEAK]
  123 00000000                 IMPORT           __main
  124 00000000                 IMPORT           SystemInit
  125 00000000 4804            LDR              R0, =SystemInit
  126 00000002 4780            BLX              R0
  127 00000004 4804            LDR              R0, =__main
  128 00000006 4700            BX               R0
  129 00000008                 ENDP
  130 00000008         



ARM Macro Assembler    Page 4 


  131 00000008         ; Dummy Exception Handlers (infinite loops which can be 
                       modified)
  132 00000008         
  133 00000008         NMI_Handler
                               PROC
  134 00000008                 EXPORT           NMI_Handler                    
[WEAK]
  135 00000008 E7FE            B                .
  136 0000000A                 ENDP
  138 0000000A         HardFault_Handler
                               PROC
  139 0000000A                 EXPORT           HardFault_Handler              
[WEAK]
  140 0000000A E7FE            B                .
  141 0000000C                 ENDP
  142 0000000C         SVC_Handler
                               PROC
  143 0000000C                 EXPORT           SVC_Handler                    
[WEAK]
  144 0000000C E7FE            B                .
  145 0000000E                 ENDP
  146 0000000E         PendSV_Handler
                               PROC
  147 0000000E                 EXPORT           PendSV_Handler                 
[WEAK]
  148 0000000E E7FE            B                .
  149 00000010                 ENDP
  150 00000010         SysTick_Handler
                               PROC
  151 00000010                 EXPORT           SysTick_Handler                
[WEAK]
  152 00000010 E7FE            B                .
  153 00000012                 ENDP
  154 00000012         
  155 00000012         Default_Handler
                               PROC
  156 00000012         
  157 00000012                 EXPORT           WKT_IRQHandler                 
[WEAK]
  158 00000012                 EXPORT           TIM1_IRQHandler              [W
EAK]
  159 00000012                 EXPORT           TIM15_IRQHandler             [W
EAK]
  160 00000012                 EXPORT           TIM16_IRQHandler             [W
EAK]
  161 00000012                 EXPORT           TIM17_IRQHandler             [W
EAK]
  162 00000012                 EXPORT           RTC_IRQHandler                 
[WEAK]
  163 00000012                 EXPORT           USB0_IRQHandler                
[WEAK]
  164 00000012                 EXPORT           USB0_DMA_IRQHandler            
[WEAK]
  165 00000012                 EXPORT           TIM4_IRQHandler              [W
EAK]
  166 00000012                 EXPORT           UART0_IRQHandler               
[WEAK]
  167 00000012                 EXPORT           UART1_IRQHandler               
[WEAK]



ARM Macro Assembler    Page 5 


  168 00000012                 EXPORT           I2C0_IRQHandler                
[WEAK]
  169 00000012                 EXPORT           UART2_IRQHandler               
[WEAK]
  170 00000012                 EXPORT           QSPI0_IRQHandler               
[WEAK]
  171 00000012                 EXPORT           QSPI1_IRQHandler               
[WEAK]
  172 00000012                 EXPORT           QSPI2_IRQHandler               
[WEAK]
  173 00000012                 EXPORT           DMA_IRQHandler                 
[WEAK]
  174 00000012                 EXPORT           GPIO0_IRQHandler               
[WEAK]
  175 00000012                 EXPORT           GPIO1_IRQHandler               
[WEAK]
  176 00000012                 EXPORT           ADC0_IRQHandler                
[WEAK]
  177 00000012                 EXPORT           BOD_IRQHandler                 
[WEAK]
  178 00000012                 EXPORT           BOR_IRQHandler                 
[WEAK]
  179 00000012                 EXPORT           CMP_IRQHandler                 
[WEAK]
  180 00000012                 EXPORT           LED_IRQHandler               [W
EAK]
  181 00000012                 EXPORT           BITCOPY_IRQHandler             
  [WEAK]
  182 00000012         
  183 00000012         WKT_IRQHandler
  184 00000012         TIM1_IRQHandler
  185 00000012         TIM15_IRQHandler
  186 00000012         TIM16_IRQHandler
  187 00000012         TIM17_IRQHandler
  188 00000012         RTC_IRQHandler
  189 00000012         USB0_IRQHandler
  190 00000012         USB0_DMA_IRQHandler
  191 00000012         TIM4_IRQHandler
  192 00000012         UART0_IRQHandler
  193 00000012         UART1_IRQHandler
  194 00000012         I2C0_IRQHandler
  195 00000012         UART2_IRQHandler
  196 00000012         QSPI0_IRQHandler
  197 00000012         QSPI1_IRQHandler
  198 00000012         QSPI2_IRQHandler
  199 00000012         DMA_IRQHandler
  200 00000012         GPIO0_IRQHandler
  201 00000012         GPIO1_IRQHandler
  202 00000012         ADC0_IRQHandler
  203 00000012         BOD_IRQHandler
  204 00000012         BOR_IRQHandler
  205 00000012         CMP_IRQHandler
  206 00000012         LED_IRQHandler
  207 00000012         BITCOPY_IRQHandler
  208 00000012         
  209 00000012 E7FE            B                .
  210 00000014         
  211 00000014                 ENDP
  212 00000014         



ARM Macro Assembler    Page 6 


  213 00000014                 ALIGN
  214 00000014         
  215 00000014         ;*******************************************************
                       ************************
  216 00000014         ; User Stack and Heap initialization
  217 00000014         ;*******************************************************
                       ************************
  218 00000014                 IF               :DEF:__MICROLIB
  219 00000014         
  220 00000014                 EXPORT           __initial_sp
  221 00000014                 EXPORT           __heap_base
  222 00000014                 EXPORT           __heap_limit
  223 00000014         
  224 00000014                 ELSE
  239                          ENDIF
  240 00000014         
  241 00000014                 END
              00000000 
              00000000 
Command Line: --debug --xref --diag_suppress=9931 --cpu=Cortex-M0 --apcs=interw
ork --depend=.\obj\startup_m1130.d -o.\obj\startup_m1130.o -ID:\Keil_v5\ARM\RV3
1\INC -ID:\Keil_v5\ARM\CMSIS\Include -ID:\Keil_v5\ARM\Inc\ST\STM32F0xx --predef
ine="__MICROLIB SETA 1" --predefine="__UVISION_VERSION SETA 520" --list=.\list\
startup_m1130.lst ..\..\..\Libraries\CMSIS\Device\ALPOS\M1130\Source\Templates\
arm\startup_m1130.s



ARM Macro Assembler    Page 1 Alphabetic symbol ordering
Relocatable symbols

STACK 00000000

Symbol: STACK
   Definitions
      At line 41 in file ..\..\..\Libraries\CMSIS\Device\ALPOS\M1130\Source\Tem
plates\arm\startup_m1130.s
   Uses
      None
Comment: STACK unused
Stack_Mem 00000000

Symbol: Stack_Mem
   Definitions
      At line 42 in file ..\..\..\Libraries\CMSIS\Device\ALPOS\M1130\Source\Tem
plates\arm\startup_m1130.s
   Uses
      None
Comment: Stack_Mem unused
__initial_sp 00000400

Symbol: __initial_sp
   Definitions
      At line 43 in file ..\..\..\Libraries\CMSIS\Device\ALPOS\M1130\Source\Tem
plates\arm\startup_m1130.s
   Uses
      At line 67 in file ..\..\..\Libraries\CMSIS\Device\ALPOS\M1130\Source\Tem
plates\arm\startup_m1130.s
      At line 220 in file ..\..\..\Libraries\CMSIS\Device\ALPOS\M1130\Source\Te
mplates\arm\startup_m1130.s

3 symbols



ARM Macro Assembler    Page 1 Alphabetic symbol ordering
Relocatable symbols

HEAP 00000000

Symbol: HEAP
   Definitions
      At line 52 in file ..\..\..\Libraries\CMSIS\Device\ALPOS\M1130\Source\Tem
plates\arm\startup_m1130.s
   Uses
      None
Comment: HEAP unused
Heap_Mem 00000000

Symbol: Heap_Mem
   Definitions
      At line 54 in file ..\..\..\Libraries\CMSIS\Device\ALPOS\M1130\Source\Tem
plates\arm\startup_m1130.s
   Uses
      None
Comment: Heap_Mem unused
__heap_base 00000000

Symbol: __heap_base
   Definitions
      At line 53 in file ..\..\..\Libraries\CMSIS\Device\ALPOS\M1130\Source\Tem
plates\arm\startup_m1130.s
   Uses
      At line 221 in file ..\..\..\Libraries\CMSIS\Device\ALPOS\M1130\Source\Te
mplates\arm\startup_m1130.s
Comment: __heap_base used once
__heap_limit 00000200

Symbol: __heap_limit
   Definitions
      At line 55 in file ..\..\..\Libraries\CMSIS\Device\ALPOS\M1130\Source\Tem
plates\arm\startup_m1130.s
   Uses
      At line 222 in file ..\..\..\Libraries\CMSIS\Device\ALPOS\M1130\Source\Te
mplates\arm\startup_m1130.s
Comment: __heap_limit used once
4 symbols



ARM Macro Assembler    Page 1 Alphabetic symbol ordering
Relocatable symbols

RESET 00000000

Symbol: RESET
   Definitions
      At line 62 in file ..\..\..\Libraries\CMSIS\Device\ALPOS\M1130\Source\Tem
plates\arm\startup_m1130.s
   Uses
      None
Comment: RESET unused
__Vectors 00000000

Symbol: __Vectors
   Definitions
      At line 67 in file ..\..\..\Libraries\CMSIS\Device\ALPOS\M1130\Source\Tem
plates\arm\startup_m1130.s
   Uses
      At line 63 in file ..\..\..\Libraries\CMSIS\Device\ALPOS\M1130\Source\Tem
plates\arm\startup_m1130.s
      At line 116 in file ..\..\..\Libraries\CMSIS\Device\ALPOS\M1130\Source\Te
mplates\arm\startup_m1130.s

__Vectors_End 000000B0

Symbol: __Vectors_End
   Definitions
      At line 114 in file ..\..\..\Libraries\CMSIS\Device\ALPOS\M1130\Source\Te
mplates\arm\startup_m1130.s
   Uses
      At line 64 in file ..\..\..\Libraries\CMSIS\Device\ALPOS\M1130\Source\Tem
plates\arm\startup_m1130.s
      At line 116 in file ..\..\..\Libraries\CMSIS\Device\ALPOS\M1130\Source\Te
mplates\arm\startup_m1130.s

3 symbols



ARM Macro Assembler    Page 1 Alphabetic symbol ordering
Relocatable symbols

.text 00000000

Symbol: .text
   Definitions
      At line 118 in file ..\..\..\Libraries\CMSIS\Device\ALPOS\M1130\Source\Te
mplates\arm\startup_m1130.s
   Uses
      None
Comment: .text unused
ADC0_IRQHandler 00000012

Symbol: ADC0_IRQHandler
   Definitions
      At line 202 in file ..\..\..\Libraries\CMSIS\Device\ALPOS\M1130\Source\Te
mplates\arm\startup_m1130.s
   Uses
      At line 104 in file ..\..\..\Libraries\CMSIS\Device\ALPOS\M1130\Source\Te
mplates\arm\startup_m1130.s
      At line 176 in file ..\..\..\Libraries\CMSIS\Device\ALPOS\M1130\Source\Te
mplates\arm\startup_m1130.s

BITCOPY_IRQHandler 00000012

Symbol: BITCOPY_IRQHandler
   Definitions
      At line 207 in file ..\..\..\Libraries\CMSIS\Device\ALPOS\M1130\Source\Te
mplates\arm\startup_m1130.s
   Uses
      At line 112 in file ..\..\..\Libraries\CMSIS\Device\ALPOS\M1130\Source\Te
mplates\arm\startup_m1130.s
      At line 181 in file ..\..\..\Libraries\CMSIS\Device\ALPOS\M1130\Source\Te
mplates\arm\startup_m1130.s

BOD_IRQHandler 00000012

Symbol: BOD_IRQHandler
   Definitions
      At line 203 in file ..\..\..\Libraries\CMSIS\Device\ALPOS\M1130\Source\Te
mplates\arm\startup_m1130.s
   Uses
      At line 106 in file ..\..\..\Libraries\CMSIS\Device\ALPOS\M1130\Source\Te
mplates\arm\startup_m1130.s
      At line 177 in file ..\..\..\Libraries\CMSIS\Device\ALPOS\M1130\Source\Te
mplates\arm\startup_m1130.s

BOR_IRQHandler 00000012

Symbol: BOR_IRQHandler
   Definitions
      At line 204 in file ..\..\..\Libraries\CMSIS\Device\ALPOS\M1130\Source\Te
mplates\arm\startup_m1130.s
   Uses
      At line 107 in file ..\..\..\Libraries\CMSIS\Device\ALPOS\M1130\Source\Te
mplates\arm\startup_m1130.s
      At line 178 in file ..\..\..\Libraries\CMSIS\Device\ALPOS\M1130\Source\Te
mplates\arm\startup_m1130.s

CMP_IRQHandler 00000012




ARM Macro Assembler    Page 2 Alphabetic symbol ordering
Relocatable symbols

Symbol: CMP_IRQHandler
   Definitions
      At line 205 in file ..\..\..\Libraries\CMSIS\Device\ALPOS\M1130\Source\Te
mplates\arm\startup_m1130.s
   Uses
      At line 108 in file ..\..\..\Libraries\CMSIS\Device\ALPOS\M1130\Source\Te
mplates\arm\startup_m1130.s
      At line 179 in file ..\..\..\Libraries\CMSIS\Device\ALPOS\M1130\Source\Te
mplates\arm\startup_m1130.s

DMA_IRQHandler 00000012

Symbol: DMA_IRQHandler
   Definitions
      At line 199 in file ..\..\..\Libraries\CMSIS\Device\ALPOS\M1130\Source\Te
mplates\arm\startup_m1130.s
   Uses
      At line 101 in file ..\..\..\Libraries\CMSIS\Device\ALPOS\M1130\Source\Te
mplates\arm\startup_m1130.s
      At line 173 in file ..\..\..\Libraries\CMSIS\Device\ALPOS\M1130\Source\Te
mplates\arm\startup_m1130.s

Default_Handler 00000012

Symbol: Default_Handler
   Definitions
      At line 155 in file ..\..\..\Libraries\CMSIS\Device\ALPOS\M1130\Source\Te
mplates\arm\startup_m1130.s
   Uses
      None
Comment: Default_Handler unused
GPIO0_IRQHandler 00000012

Symbol: GPIO0_IRQHandler
   Definitions
      At line 200 in file ..\..\..\Libraries\CMSIS\Device\ALPOS\M1130\Source\Te
mplates\arm\startup_m1130.s
   Uses
      At line 102 in file ..\..\..\Libraries\CMSIS\Device\ALPOS\M1130\Source\Te
mplates\arm\startup_m1130.s
      At line 174 in file ..\..\..\Libraries\CMSIS\Device\ALPOS\M1130\Source\Te
mplates\arm\startup_m1130.s

GPIO1_IRQHandler 00000012

Symbol: GPIO1_IRQHandler
   Definitions
      At line 201 in file ..\..\..\Libraries\CMSIS\Device\ALPOS\M1130\Source\Te
mplates\arm\startup_m1130.s
   Uses
      At line 103 in file ..\..\..\Libraries\CMSIS\Device\ALPOS\M1130\Source\Te
mplates\arm\startup_m1130.s
      At line 175 in file ..\..\..\Libraries\CMSIS\Device\ALPOS\M1130\Source\Te
mplates\arm\startup_m1130.s

HardFault_Handler 0000000A

Symbol: HardFault_Handler
   Definitions



ARM Macro Assembler    Page 3 Alphabetic symbol ordering
Relocatable symbols

      At line 138 in file ..\..\..\Libraries\CMSIS\Device\ALPOS\M1130\Source\Te
mplates\arm\startup_m1130.s
   Uses
      At line 70 in file ..\..\..\Libraries\CMSIS\Device\ALPOS\M1130\Source\Tem
plates\arm\startup_m1130.s
      At line 139 in file ..\..\..\Libraries\CMSIS\Device\ALPOS\M1130\Source\Te
mplates\arm\startup_m1130.s

I2C0_IRQHandler 00000012

Symbol: I2C0_IRQHandler
   Definitions
      At line 194 in file ..\..\..\Libraries\CMSIS\Device\ALPOS\M1130\Source\Te
mplates\arm\startup_m1130.s
   Uses
      At line 96 in file ..\..\..\Libraries\CMSIS\Device\ALPOS\M1130\Source\Tem
plates\arm\startup_m1130.s
      At line 168 in file ..\..\..\Libraries\CMSIS\Device\ALPOS\M1130\Source\Te
mplates\arm\startup_m1130.s

LED_IRQHandler 00000012

Symbol: LED_IRQHandler
   Definitions
      At line 206 in file ..\..\..\Libraries\CMSIS\Device\ALPOS\M1130\Source\Te
mplates\arm\startup_m1130.s
   Uses
      At line 111 in file ..\..\..\Libraries\CMSIS\Device\ALPOS\M1130\Source\Te
mplates\arm\startup_m1130.s
      At line 180 in file ..\..\..\Libraries\CMSIS\Device\ALPOS\M1130\Source\Te
mplates\arm\startup_m1130.s

NMI_Handler 00000008

Symbol: NMI_Handler
   Definitions
      At line 133 in file ..\..\..\Libraries\CMSIS\Device\ALPOS\M1130\Source\Te
mplates\arm\startup_m1130.s
   Uses
      At line 69 in file ..\..\..\Libraries\CMSIS\Device\ALPOS\M1130\Source\Tem
plates\arm\startup_m1130.s
      At line 134 in file ..\..\..\Libraries\CMSIS\Device\ALPOS\M1130\Source\Te
mplates\arm\startup_m1130.s

PendSV_Handler 0000000E

Symbol: PendSV_Handler
   Definitions
      At line 146 in file ..\..\..\Libraries\CMSIS\Device\ALPOS\M1130\Source\Te
mplates\arm\startup_m1130.s
   Uses
      At line 81 in file ..\..\..\Libraries\CMSIS\Device\ALPOS\M1130\Source\Tem
plates\arm\startup_m1130.s
      At line 147 in file ..\..\..\Libraries\CMSIS\Device\ALPOS\M1130\Source\Te
mplates\arm\startup_m1130.s

QSPI0_IRQHandler 00000012

Symbol: QSPI0_IRQHandler



ARM Macro Assembler    Page 4 Alphabetic symbol ordering
Relocatable symbols

   Definitions
      At line 196 in file ..\..\..\Libraries\CMSIS\Device\ALPOS\M1130\Source\Te
mplates\arm\startup_m1130.s
   Uses
      At line 98 in file ..\..\..\Libraries\CMSIS\Device\ALPOS\M1130\Source\Tem
plates\arm\startup_m1130.s
      At line 170 in file ..\..\..\Libraries\CMSIS\Device\ALPOS\M1130\Source\Te
mplates\arm\startup_m1130.s

QSPI1_IRQHandler 00000012

Symbol: QSPI1_IRQHandler
   Definitions
      At line 197 in file ..\..\..\Libraries\CMSIS\Device\ALPOS\M1130\Source\Te
mplates\arm\startup_m1130.s
   Uses
      At line 99 in file ..\..\..\Libraries\CMSIS\Device\ALPOS\M1130\Source\Tem
plates\arm\startup_m1130.s
      At line 171 in file ..\..\..\Libraries\CMSIS\Device\ALPOS\M1130\Source\Te
mplates\arm\startup_m1130.s

QSPI2_IRQHandler 00000012

Symbol: QSPI2_IRQHandler
   Definitions
      At line 198 in file ..\..\..\Libraries\CMSIS\Device\ALPOS\M1130\Source\Te
mplates\arm\startup_m1130.s
   Uses
      At line 100 in file ..\..\..\Libraries\CMSIS\Device\ALPOS\M1130\Source\Te
mplates\arm\startup_m1130.s
      At line 172 in file ..\..\..\Libraries\CMSIS\Device\ALPOS\M1130\Source\Te
mplates\arm\startup_m1130.s

RTC_IRQHandler 00000012

Symbol: RTC_IRQHandler
   Definitions
      At line 188 in file ..\..\..\Libraries\CMSIS\Device\ALPOS\M1130\Source\Te
mplates\arm\startup_m1130.s
   Uses
      At line 90 in file ..\..\..\Libraries\CMSIS\Device\ALPOS\M1130\Source\Tem
plates\arm\startup_m1130.s
      At line 162 in file ..\..\..\Libraries\CMSIS\Device\ALPOS\M1130\Source\Te
mplates\arm\startup_m1130.s

Reset_Handler 00000000

Symbol: Reset_Handler
   Definitions
      At line 121 in file ..\..\..\Libraries\CMSIS\Device\ALPOS\M1130\Source\Te
mplates\arm\startup_m1130.s
   Uses
      At line 68 in file ..\..\..\Libraries\CMSIS\Device\ALPOS\M1130\Source\Tem
plates\arm\startup_m1130.s
      At line 122 in file ..\..\..\Libraries\CMSIS\Device\ALPOS\M1130\Source\Te
mplates\arm\startup_m1130.s

SVC_Handler 0000000C




ARM Macro Assembler    Page 5 Alphabetic symbol ordering
Relocatable symbols

Symbol: SVC_Handler
   Definitions
      At line 142 in file ..\..\..\Libraries\CMSIS\Device\ALPOS\M1130\Source\Te
mplates\arm\startup_m1130.s
   Uses
      At line 78 in file ..\..\..\Libraries\CMSIS\Device\ALPOS\M1130\Source\Tem
plates\arm\startup_m1130.s
      At line 143 in file ..\..\..\Libraries\CMSIS\Device\ALPOS\M1130\Source\Te
mplates\arm\startup_m1130.s

SysTick_Handler 00000010

Symbol: SysTick_Handler
   Definitions
      At line 150 in file ..\..\..\Libraries\CMSIS\Device\ALPOS\M1130\Source\Te
mplates\arm\startup_m1130.s
   Uses
      At line 82 in file ..\..\..\Libraries\CMSIS\Device\ALPOS\M1130\Source\Tem
plates\arm\startup_m1130.s
      At line 151 in file ..\..\..\Libraries\CMSIS\Device\ALPOS\M1130\Source\Te
mplates\arm\startup_m1130.s

TIM15_IRQHandler 00000012

Symbol: TIM15_IRQHandler
   Definitions
      At line 185 in file ..\..\..\Libraries\CMSIS\Device\ALPOS\M1130\Source\Te
mplates\arm\startup_m1130.s
   Uses
      At line 87 in file ..\..\..\Libraries\CMSIS\Device\ALPOS\M1130\Source\Tem
plates\arm\startup_m1130.s
      At line 159 in file ..\..\..\Libraries\CMSIS\Device\ALPOS\M1130\Source\Te
mplates\arm\startup_m1130.s

TIM16_IRQHandler 00000012

Symbol: TIM16_IRQHandler
   Definitions
      At line 186 in file ..\..\..\Libraries\CMSIS\Device\ALPOS\M1130\Source\Te
mplates\arm\startup_m1130.s
   Uses
      At line 88 in file ..\..\..\Libraries\CMSIS\Device\ALPOS\M1130\Source\Tem
plates\arm\startup_m1130.s
      At line 160 in file ..\..\..\Libraries\CMSIS\Device\ALPOS\M1130\Source\Te
mplates\arm\startup_m1130.s

TIM17_IRQHandler 00000012

Symbol: TIM17_IRQHandler
   Definitions
      At line 187 in file ..\..\..\Libraries\CMSIS\Device\ALPOS\M1130\Source\Te
mplates\arm\startup_m1130.s
   Uses
      At line 89 in file ..\..\..\Libraries\CMSIS\Device\ALPOS\M1130\Source\Tem
plates\arm\startup_m1130.s
      At line 161 in file ..\..\..\Libraries\CMSIS\Device\ALPOS\M1130\Source\Te
mplates\arm\startup_m1130.s

TIM1_IRQHandler 00000012



ARM Macro Assembler    Page 6 Alphabetic symbol ordering
Relocatable symbols


Symbol: TIM1_IRQHandler
   Definitions
      At line 184 in file ..\..\..\Libraries\CMSIS\Device\ALPOS\M1130\Source\Te
mplates\arm\startup_m1130.s
   Uses
      At line 86 in file ..\..\..\Libraries\CMSIS\Device\ALPOS\M1130\Source\Tem
plates\arm\startup_m1130.s
      At line 158 in file ..\..\..\Libraries\CMSIS\Device\ALPOS\M1130\Source\Te
mplates\arm\startup_m1130.s

TIM4_IRQHandler 00000012

Symbol: TIM4_IRQHandler
   Definitions
      At line 191 in file ..\..\..\Libraries\CMSIS\Device\ALPOS\M1130\Source\Te
mplates\arm\startup_m1130.s
   Uses
      At line 93 in file ..\..\..\Libraries\CMSIS\Device\ALPOS\M1130\Source\Tem
plates\arm\startup_m1130.s
      At line 165 in file ..\..\..\Libraries\CMSIS\Device\ALPOS\M1130\Source\Te
mplates\arm\startup_m1130.s

UART0_IRQHandler 00000012

Symbol: UART0_IRQHandler
   Definitions
      At line 192 in file ..\..\..\Libraries\CMSIS\Device\ALPOS\M1130\Source\Te
mplates\arm\startup_m1130.s
   Uses
      At line 94 in file ..\..\..\Libraries\CMSIS\Device\ALPOS\M1130\Source\Tem
plates\arm\startup_m1130.s
      At line 166 in file ..\..\..\Libraries\CMSIS\Device\ALPOS\M1130\Source\Te
mplates\arm\startup_m1130.s

UART1_IRQHandler 00000012

Symbol: UART1_IRQHandler
   Definitions
      At line 193 in file ..\..\..\Libraries\CMSIS\Device\ALPOS\M1130\Source\Te
mplates\arm\startup_m1130.s
   Uses
      At line 95 in file ..\..\..\Libraries\CMSIS\Device\ALPOS\M1130\Source\Tem
plates\arm\startup_m1130.s
      At line 167 in file ..\..\..\Libraries\CMSIS\Device\ALPOS\M1130\Source\Te
mplates\arm\startup_m1130.s

UART2_IRQHandler 00000012

Symbol: UART2_IRQHandler
   Definitions
      At line 195 in file ..\..\..\Libraries\CMSIS\Device\ALPOS\M1130\Source\Te
mplates\arm\startup_m1130.s
   Uses
      At line 97 in file ..\..\..\Libraries\CMSIS\Device\ALPOS\M1130\Source\Tem
plates\arm\startup_m1130.s
      At line 169 in file ..\..\..\Libraries\CMSIS\Device\ALPOS\M1130\Source\Te
mplates\arm\startup_m1130.s




ARM Macro Assembler    Page 7 Alphabetic symbol ordering
Relocatable symbols

USB0_DMA_IRQHandler 00000012

Symbol: USB0_DMA_IRQHandler
   Definitions
      At line 190 in file ..\..\..\Libraries\CMSIS\Device\ALPOS\M1130\Source\Te
mplates\arm\startup_m1130.s
   Uses
      At line 92 in file ..\..\..\Libraries\CMSIS\Device\ALPOS\M1130\Source\Tem
plates\arm\startup_m1130.s
      At line 164 in file ..\..\..\Libraries\CMSIS\Device\ALPOS\M1130\Source\Te
mplates\arm\startup_m1130.s

USB0_IRQHandler 00000012

Symbol: USB0_IRQHandler
   Definitions
      At line 189 in file ..\..\..\Libraries\CMSIS\Device\ALPOS\M1130\Source\Te
mplates\arm\startup_m1130.s
   Uses
      At line 91 in file ..\..\..\Libraries\CMSIS\Device\ALPOS\M1130\Source\Tem
plates\arm\startup_m1130.s
      At line 163 in file ..\..\..\Libraries\CMSIS\Device\ALPOS\M1130\Source\Te
mplates\arm\startup_m1130.s

WKT_IRQHandler 00000012

Symbol: WKT_IRQHandler
   Definitions
      At line 183 in file ..\..\..\Libraries\CMSIS\Device\ALPOS\M1130\Source\Te
mplates\arm\startup_m1130.s
   Uses
      At line 85 in file ..\..\..\Libraries\CMSIS\Device\ALPOS\M1130\Source\Tem
plates\arm\startup_m1130.s
      At line 157 in file ..\..\..\Libraries\CMSIS\Device\ALPOS\M1130\Source\Te
mplates\arm\startup_m1130.s

33 symbols



ARM Macro Assembler    Page 1 Alphabetic symbol ordering
Absolute symbols

Heap_Size 00000200

Symbol: Heap_Size
   Definitions
      At line 50 in file ..\..\..\Libraries\CMSIS\Device\ALPOS\M1130\Source\Tem
plates\arm\startup_m1130.s
   Uses
      At line 54 in file ..\..\..\Libraries\CMSIS\Device\ALPOS\M1130\Source\Tem
plates\arm\startup_m1130.s
Comment: Heap_Size used once
Stack_Size 00000400

Symbol: Stack_Size
   Definitions
      At line 39 in file ..\..\..\Libraries\CMSIS\Device\ALPOS\M1130\Source\Tem
plates\arm\startup_m1130.s
   Uses
      At line 42 in file ..\..\..\Libraries\CMSIS\Device\ALPOS\M1130\Source\Tem
plates\arm\startup_m1130.s
Comment: Stack_Size used once
__Vectors_Size 000000B0

Symbol: __Vectors_Size
   Definitions
      At line 116 in file ..\..\..\Libraries\CMSIS\Device\ALPOS\M1130\Source\Te
mplates\arm\startup_m1130.s
   Uses
      At line 65 in file ..\..\..\Libraries\CMSIS\Device\ALPOS\M1130\Source\Tem
plates\arm\startup_m1130.s
Comment: __Vectors_Size used once
3 symbols



ARM Macro Assembler    Page 1 Alphabetic symbol ordering
External symbols

SystemInit 00000000

Symbol: SystemInit
   Definitions
      At line 124 in file ..\..\..\Libraries\CMSIS\Device\ALPOS\M1130\Source\Te
mplates\arm\startup_m1130.s
   Uses
      At line 125 in file ..\..\..\Libraries\CMSIS\Device\ALPOS\M1130\Source\Te
mplates\arm\startup_m1130.s
Comment: SystemInit used once
__main 00000000

Symbol: __main
   Definitions
      At line 123 in file ..\..\..\Libraries\CMSIS\Device\ALPOS\M1130\Source\Te
mplates\arm\startup_m1130.s
   Uses
      At line 127 in file ..\..\..\Libraries\CMSIS\Device\ALPOS\M1130\Source\Te
mplates\arm\startup_m1130.s
Comment: __main used once
2 symbols
382 symbols in table
